{
  "id": "MHL.37",
  "@context": "http://schema.laji.fi/context/form.jsonld",
  "@type": "MHL.form",
  "description": "@description",
  "fields": [
    {
      "formID": "MHL.36"
    },
    {
      "label": "@MNP.birdAssociationArea",
      "name": "birdAssociationArea",
      "options": {
        "target_element": {
          "type": "text"
        },
        "uniqueItems": true
      },
      "type": "collection"
    },
    {
      "label": "@MNP.alternativeIDs",
      "name": "alternativeIDs",
      "options": {
        "target_element": {
          "type": "text"
        }
      },
      "type": "collection",
      "validators": {
        "remote": {
          "message": "@alternativeIDsValidation",
          "validator": "uniqueNamedPlaceAlternativeIDs"
        }
      }
    }
  ],
  "patch": [
    {
      "op": "add",
      "path": "/uiSchema/birdAssociationArea",
      "value": {
        "ui:options": {
          "renderTitleAsLabel": true
        },
        "ui:functions": [
          {
            "ui:field": "ContextInjectionField",
            "ui:options": {
              "injections": {
                "/items/enum": "/birdAssociationAreaEnum/enum",
                "/items/enumNames": "/birdAssociationAreaEnum/enumNames"
              },
              "target": "schema"
            }
          },
          {
            "ui:field": "SingleItemArrayField"
          }
        ]
      }
    },
    {
      "op": "add",
      "path": "/uiSchema/alternativeIDs",
      "value": {
        "ui:field": "TagArrayField",
        "ui:options": {
          "renderTitleAsLabel": true
        }
      }
    },
    {
      "op": "add",
      "path": "/uiSchema/geometry/ui:options/geometryCollection",
      "value": false
    },
    {
      "op": "add",
      "path": "/uiSchema/ui:order/3",
      "value": "birdAssociationArea"
    }
  ],
  "language": "fi",
  "name": "Talvilintulaskennan nimetty paikka",
  "title": "@title",
  "translations": {
    "en": {
      "@alternativeIDsValidation": "There already exists a route with one of the given alternative IDs.",
      "MNP.alternativeIDs": "Alternative IDs",
      "MNP.birdAssociationArea": "Bird assocation area",
      "@footerSaveButtonLabel": "Save route"
    },
    "fi": {
      "@alternativeIDsValidation": "On olemassa jo reitti, jolla on jokin annetuista vaihtoehtoisista tunnisteista.",
      "MNP.alternativeIDs": "Vaihtoehtoiset tunnisteet",
      "MNP.birdAssociationArea": "Lintuyhdistys",
      "@footerSaveButtonLabel": "Tallenna reitti"
    },
    "sv": {
      "@alternativeIDsValidation": "Det finns redan en rutt med en av de givna alternativa ID:n.",
      "MNP.alternativeIDs": "Alternativa ID:n",
      "MNP.birdAssociationArea": "MNP.birdAssociationArea",
      "@footerSaveButtonLabel": "Spara rutt"
    }
  },
  "options": {
    "saveLabel": "@footerSaveButtonLabel",
    "hideDraftButton": true
  }
}