{
  "id": "MHL.43",
  "@context": "http://schema.laji.fi/context/form.jsonld",
  "@type": "MHL.form",
  "collectionID": "HR.3092",
  "fields": [
    {
      "formID": "MHL.41"
    }
  ],
  "patch": [
    {
      "op": "add",
      "path": "/fields/4/fields/-",
      "value": {
        "name": "MY.invasiveControlEffectiveness",
        "options": {
          "excludeFromCopy": true
        }
      }
    },
    {
      "op": "add",
      "path": "/fields/4/fields/-",
      "value": {
        "name": "MY.invasiveControlEffectivenessDescription",
        "options": {
          "excludeFromCopy": true
        }
      }
    },
    {
      "op": "add",
      "path": "/fields/4/fields/-",
      "value": {
        "name": "MY.invasiveControlEffectivenessNotes",
        "options": {
          "excludeFromCopy": true
        }
      }
    },
    {
      "op": "add",
      "path": "/fields/4/fields/-",
      "value": {
        "name": "MY.invasiveControlAreaKnown",
        "options": {
          "excludeFromCopy": true
        }
      }
    },
    {
      "op": "add",
      "path": "/fields/4/fields/-",
      "value": {
        "name": "MY.invasiveControlMethods",
        "options": {
          "excludeFromCopy": true
        }
      }
    },
    {
      "op": "add",
      "path": "/fields/4/fields/-",
      "value": {
        "name": "MY.invasiveControlMethodsDescription",
        "options": {
          "excludeFromCopy": true
        }
      }
    },
    {
      "op": "add",
      "path": "/fields/4/fields/-",
      "value": {
        "name": "MY.invasiveControlOpen",
        "type": "checkbox",
        "options": {
          "default": true,
          "excludeFromCopy": true
        }
      }
    },
    {
      "op": "add",
      "path": "/fields/4/fields/-",
      "value": {
        "name": "MY.invasiveControlOpenDescription"
      }
    },
    {
      "op": "add",
      "path": "/fields/4/fields/-",
      "value": {
        "name": "MY.invasiveControlDangerous",
        "type": "checkbox",
        "options": {
          "default": false,
          "excludeFromCopy": true
        }
      }
    },
    {
      "op": "add",
      "path": "/fields/4/fields/-",
      "value": {
        "name": "MY.invasiveControlDangerousDescription",
        "options": {
          "excludeFromCopy": true
        }
      }
    },
    {
      "op": "add",
      "path": "/fields/4/fields/-",
      "value": {
        "name": "MY.invasiveControlEffectiveness",
        "options": {
          "excludeFromCopy": true
        }
      }
    },
    {
      "op": "add",
      "path": "/fields/4/fields/-",
      "value": {
        "name": "MY.invasiveControlEffectivenessNotes",
        "options": {
          "excludeFromCopy": true
        }
      }
    },
    {
      "op": "add",
      "path": "/fields/4/fields/-",
      "value": {
        "name": "MY.gatheringFact",
        "label": "",
        "type": "fieldset",
        "fields": [
          {
            "name": "MY.invasiveControlWorkHours",
            "options": {
              "excludeFromCopy": true
            }
          },
          {
            "name": "MY.invasiveControlOtherExpensesInEuros",
            "options": {
              "excludeFromCopy": true
            }
          }
        ]
      }
    },
    {
      "op": "add",
      "path": "/fields/4/fields/23/fields/-",
      "value": {
        "name": "MY.areaInSquareMeters",
        "options": {
          "excludeFromCopy": true
        }
      }
    },
    {
      "op": "add",
      "path": "/uiSchema/gatherings/ui:childFunctions/ui:options/fields/-",
      "value": "gatheringFact"
    },
    {
      "op": "add",
      "path": "/uiSchema/gatherings/items/ui:functions/4/ui:options/fields/-",
      "value": "invasiveControlAreaKnown"
    },
    {
      "op": "add",
      "path": "/uiSchema/gatherings/items/ui:functions/4/ui:options/fields/-",
      "value": "invasiveControlEffectiveness"
    },
    {
      "op": "add",
      "path": "/uiSchema/gatherings/items/ui:functions/4/ui:options/fields/-",
      "value": "invasiveControlEffectivenessDescription"
    },
    {
      "op": "add",
      "path": "/uiSchema/gatherings/items/ui:functions/4/ui:options/fields/-",
      "value": "invasiveControlMethods"
    },
    {
      "op": "add",
      "path": "/uiSchema/gatherings/items/ui:functions/4/ui:options/fields/-",
      "value": "invasiveControlMethodsDescription"
    },
    {
      "op": "add",
      "path": "/uiSchema/gatherings/items/ui:functions/4/ui:options/fields/-",
      "value": "invasiveControlOpen"
    },
    {
      "op": "add",
      "path": "/uiSchema/gatherings/items/ui:functions/4/ui:options/fields/-",
      "value": "invasiveControlOpenDescription"
    },
    {
      "op": "add",
      "path": "/uiSchema/gatherings/items/ui:functions/4/ui:options/fields/-",
      "value": "invasiveControlDangerous"
    },
    {
      "op": "add",
      "path": "/uiSchema/gatherings/items/ui:functions/4/ui:options/fieldScopes/units_0_informalTaxonGroups/*/additionalFields/-",
      "value": "units_0_areaInSquareMeters"
    }
  ],
  "uiSchema": {
    "gatherings": {
      "items": {
        "invasiveControlAreaKnown": {
          "ui:options": {
            "allowUndefined": false
          }
        },
        "invasiveControlDangerous": {
          "ui:options": {
            "allowUndefined": false
          }
        },
        "invasiveControlOpen": {
          "ui:options": {
            "allowUndefined": false
          }
        }
      }
    }
  },
  "language": "fi",
  "name": "Viranomaisten vieraslajihavaintolomake",
  "title": "Viranomaisten vieraslajihavaintolomake",
  "options": {
    "saveLabel": "@footerSaveButtonLabel",
    "hideDraftButton": true
  },
  "translations": {
    "fi": [],
    "en": [],
    "sv": []
  }
}