{
  "id": "MHL.9",
  "collectionID": "HR.2832",
  "name": "Mikä laji?",
  "language": "fi",
  "title": "@@title",
  "description": "@description",
  "shortDescription": "@shortDescription",
  "fields": [
    {
      "name": "MZ.editors",
      "label": "@editorsLabel"
    },
    {
      "name": "MX.secureLevel",
      "label": "@secureLevelLabel",
      "options": {
        "default": "MX.secureLevelNone",
        "whitelist": [
          "MX.secureLevelKM10",
          "MX.secureLevelNone"
        ]
      }
    },
    {
      "name": "gatheringEvent",
      "label": "",
      "type": "fieldset",
      "validators": {
        "presence": {
          "allowEmpty": false
        }
      },
      "fields": [
        {
          "name": "MY.leg",
          "label": "@legLabel",
          "validators": {
            "presence": {
              "message": "@legPresenceValidation"
            }
          }
        },
        {
          "name": "MY.legPublic",
          "label": "@legPublicLabel",
          "type": "checkbox",
          "options": {
            "default": true
          }
        }
      ]
    },
    {
      "name": "gatherings",
      "type": "collection",
      "label": "",
      "options": {
        "minItems": 1
      },
      "validators": {
        "presence": {
          "message": "@gatheringsPresenceValidation",
          "allowEmpty": false
        }
      },
      "fields": [
        {
          "name": "MY.country"
        },
        {
          "name": "MY.municipality"
        },
        {
          "name": "MY.locality"
        },
        {
          "name": "MY.localityDescription"
        },
        {
          "name": "units",
          "label": "",
          "type": "collection",
          "options": {
            "minItems": 1,
            "uniqueItems": false
          },
          "validators": {
            "presence": {
              "message": "@unitsPresenceValidation",
              "allowEmpty": false
            }
          },
          "fields": [
            {
              "name": "MY.informalTaxonGroups",
              "label": "@informalTaxonGroupsLabel"
            },
            {
              "name": "MY.taxonConfidence",
              "options": {
                "default": "MY.taxonConfidenceUnsure"
              }
            },
            {
              "name": "MY.notes",
              "label": "@unitNotesLabel"
            },
            {
              "name": "MZ.images",
              "label": "@imageLabel",
              "validators": {
                "length": {
                  "minimum": 1,
                  "message": "@imageValidation"
                }
              }
            },
            {
              "name": "identifications",
              "options": {
                "minItems": 1
              },
              "type": "collection",
              "fields": [
                {
                  "name": "MY.taxon",
                  "label": "@taxonLabel"
                }
              ],
              "validators": {
                "presence": {
                  "message": "@taxonValidation"
                }
              }
            },
            {
              "name": "unitFact",
              "type": "fieldset",
              "fields": [
                {
                  "name": "MY.autocompleteSelectedTaxonID"
                }
              ]
            }
          ]
        },
        {
          "name": "MY.dateBegin",
          "label": "@dateBeginLabel",
          "validators": {
            "datetime": {
              "latest": "now",
              "message": "@dateInTheFutureValidation"
            },
            "presence": {
              "message": "@dateBeginPresenceValidation"
            }
          }
        },
        {
          "name": "MZ.geometry",
          "label": "",
          "options": {
            "default": {
              "type": "GeometryCollection",
              "geometries": []
            }
          },
          "validators": {
            "geometry": {
              "requireShape": true,
              "message": "@geometryValidation"
            }
          }
        }
      ]
    }
  ],
  "translations": {
    "en": {
      "@title": "Which species?",
      "@description": "Send photos of animals, plants, and other organisms to other users to determine.",
      "@shortDescription": "Send photos of animals, plants, and other organisms to other users to identify.",
      "@editorsLabel": "Edit rights",
      "@legLabel": "Observers",
      "@gatheringsLabel": "Location",
      "@gatheringsImagesLabel": "Images of the site",
      "@unitsLabel": "Observations",
      "@editorsHelp": "If you report an identified user as an observer and the user has added you as a friend, you can give the user rights to edit this field trip report. Additionally observations from this field trip report are shown to this particular user among his/her own observations.",
      "@gatheringsHelp": "Start reporting observations by drawing the observation site on the map",
      "@gatheringsItemsTitle": "Information about the observation site",
      "@time": "Time",
      "@addGathering": "Add a place",
      "@addUnit": "Add an observation",
      "@copyUnit": "Copy the observation",
      "@youMustBeEditor": "You must be an editor.",
      "@legPresenceValidation": "At least one observer must be reported.",
      "@gatheringsPresenceValidation": "At least one location must be reported.",
      "@unitsPresenceValidation": "At least one observation must be reported.",
      "@dateSpanValidation": "The begin of the time span %{value} must be before it's end %{key}",
      "@startMissingValidation": "The begin is required when the end is given.",
      "@dateBeginPresenceValidation": "Date is required",
      "@dateValidation": "Must be before %{date}",
      "@all": "All",
      "@mushroomsTitle": "Fungi",
      "@substrateLabel": "Substrate notes",
      "@addPhotoGlyphLabel": "Add a photo",
      "@setLocationGlyphLabel": "Set location",
      "@geometryValidation": "Gathering must have at least one feature.",
      "@dateInTheFutureValidation": "Date can't be in the future",
      "@unitShortcutHelp": "unit",
      "@gatheringShortcutHelp": "gathering",
      "@gatheringShortcutNavigateHelp": "gathering",
      "@unitShortcutNavigateHelp": "unit",
      "@unitsTitleFormat": "Places %{idx} observations",
      "@imageLabel": "Images of the observation",
      "@informalTaxonGroupsLabel": "Select a species group",
      "@taxonLabel": "You can also write the guessed organism name",
      "dateBeginLabel": "Date of observation",
      "@geometryLabel": "Place",
      "@imageValidation": "Add at least one image",
      "@unitNotesLabel": "Details on the observed organism and the observation method",
      "@mapEmptyHelp": "Add a marker to the map by clicking the button on the right",
      "@legPublicLabel": "Observer names are public",
      "@legPublicHelp": "You can hide the observer names if needed by selecting \"No\". The observer names are always available to authoritatives.",
      "@secureLevelLabel": "The observations geographic information is public in detail",
      "@secureLevelHelp": "By selecting \"No\" the observations geographic information will be coarsened to a 10 x 10 km² square in public material. The geographic information will always be available to authoritatives in detail. Images attached to coarsened observations are public."
    },
    "sv": {
      "@title": "Vilkan art?",
      "@description": "Skicka foton av djur, växter och andra organismer till andra användare för att bestämma.",
      "@shortDescription": "Skicka foton av djur, växter och andra organismer till andra användare för att bestämma.",
      "@editorsLabel": "Redigeringsrättigheter",
      "@legLabel": "Observatörer",
      "@gatheringsLabel": "Plats",
      "@gatheringsImagesLabel": "Bilder av observationsplats",
      "@unitsLabel": "Observationer",
      "@editorsHelp": "Om du rapporterar en identifierad användare som observatör och användaren har lagt till dig som en vän, kan du ge användaren rätt att ändra denna fältbesöksrapport. Förutom observationer från denna fältbesöksrapport visas till användaren bland hans/hennes egna observationer.",
      "@gatheringsHelp": "Börja rapportera observationer genom att dra observationsplatsen på kartan",
      "@gatheringsItemsTitle": "Information av observationsplats",
      "@time": "Tid",
      "@addGathering": "Lägg till en plats",
      "@addUnit": "Lägg till en observation",
      "@copyUnit": "Kopiera observationen",
      "@youMustBeEditor": "Du måste ha redigeringsrättigheter.",
      "@legPresenceValidation": "Åtminstone en observatör måste rapporteras.",
      "@gatheringsPresenceValidation": "Åtminstone ett plats måste rapporteras.",
      "@unitsPresenceValidation": "Åtminstone en observation måste rapporteras.",
      "@dateSpanValidation": "Början av tidsintervallet %{value} måste vara före slutet av den %{key}",
      "@startMissingValidation": "Början krävs när slutet ges.",
      "@dateBeginPresenceValidation": "Datumn krävs",
      "@dateValidation": "Måste vara före %{date}",
      "@all": "Alla",
      "@mushroomsTitle": "Svampar",
      "@substrateLabel": "Anteckningar av substrat",
      "@addPhotoGlyphLabel": "Lägg till en foto",
      "@setLocationGlyphLabel": "Ange platsen",
      "@geometryValidation": "Platsen måste ha åtminstone en figur",
      "@dateInTheFutureValidation": "Datum bör inte vara i framtiden",
      "@unitShortcutHelp": "observation",
      "@gatheringShortcutHelp": "plats",
      "@gatheringShortcutNavigateHelp": "plats",
      "@unitShortcutNavigateHelp": "observation",
      "@unitsTitleFormat": "Plats %{idx} observationer",
      "@biotooppiLabel": "biotop",
      "@imageLabel": "Bilder av observationen",
      "@informalTaxonGroupsLabel": "Ange organismgruppen",
      "@taxonLabel": "Du kan också skriva gissat organismer namn",
      "dateBeginLabel": "Datum för observation",
      "@geometryLabel": "Plats",
      "@imageValidation": "lägg till minst ett foto",
      "@unitNotesLabel": "Detaljer om den observerade organismen och observationsmetoden",
      "@mapEmptyHelp": "Lägg till en markör på kartan genom att klicka på knappen till höger",
      "@legPublicLabel": "Observernamn är offentliga",
      "@legPublicHelp": "Du kan gömma observatörsnamn om det behövs genom att välja \"Nej\". Observatörsnamnen är alltid synliga för auktoritativa medel.",
      "@secureLevelLabel": "Observationerna geografisk information är offentliga i detalj",
      "@secureLevelHelp": "Genom att välja \"Nej\" kommer observationerna geografisk information att grovas till en 10 x 10 km² kvadrat i offentligt material. Den geografiska informationen kommer alltid att finnas tillgänglig för auktoritativa uppgifter i detalj. Bilder som är fästa vid grovade observationer är offentliga."
    },
    "fi": {
      "@title": "Mikä laji?",
      "@description": "<p>Tällä lomakkeella voit lähettää kuvia eläimistä, kasveista ja muista eliöistä muiden käyttäjien määritettäväksi. Määritystyö perustuu vapaaehtoiseen asiantuntijatyöhön ja siksi on hyvä huomata, että palvelun nopeus ja toimivuus riippuvat lajiharrastajien aktiivisuudesta!</p><p>On tärkeää, että kuvat ovat hyvälaatuisia ja eliön tunnistamiseen tarvittavat tuntomerkit näkyvät mahdollisimman hyvin, sillä monissa lajiryhmissä kuvista määrittäminen on vaikeaa.</p><p>Voit lähettää useamman kuvan havaitsemastasi lajista esim. eri kuvakulmista sekä myös elinympäristöstä. Ilmoita lomakkeella kuitenkin vain yksi laji kerrallaan.</p><p>Määritetystä kuvasta syntyy Lajitietokeskukseen lajihavainto, joka osaltaan lisää lajitietoa on ja tutkijoiden ja harrastajien käytettävissä. Näin olet helpolla tavalla mukana tekemässä kansalaistiedettä.</p>",
      "@shortDescription": "Lähetä kuvia eläimistä, kasveista ja muista eliöistä muiden käyttäjien määritettäväksi.",
      "@legLabel": "Havainnoijat",
      "@gatheringsLabel": "Paikka",
      "@gatheringsImagesLabel": "Kuvat havaintopaikasta",
      "@unitsLabel": "Havainnot",
      "@editorsHelp": "Jos lisäät tälle lomakkeelle uuden havainnoijan, joka on profiilissasi luokiteltu kaveriksesi, voit antaa hänelle oikeuden muokata retkikertomusta. Muokkausoikeuden haltijoille kaikki lomakkeeseen tallennetut havainnot näkyvät myös heidän omina havaintoinaan.",
      "@gatheringsHelp": "Aloita havaintojen ilmoittaminen piirtämällä havaintoalue kartalle",
      "@gatheringsItemsTitle": "Havaintopaikan tiedot",
      "@time": "Aika",
      "@addGathering": "Lisää paikka",
      "@addUnit": "Lisää havainto",
      "@copyUnit": "Kopioi havainto",
      "@youMustBeEditor": "Sinulla täytyy olla muokkausoikeus.",
      "@legPresenceValidation": "Vähintään yksi havainnoija täytyy ilmoittaa.",
      "@gatheringsPresenceValidation": "Vähintään yksi paikka täytyy ilmoittaa.",
      "@unitsPresenceValidation": "Vähintään yksi havainto täytyy ilmoittaa.",
      "@dateSpanValidation": "Aikavälin alun %{value} pitää olla ennen loppua %{key}",
      "@dateBeginPresenceValidation": "Päivämäärä on pakollinen",
      "@startMissingValidation": "Alku on pakollinen jos loppu on ilmoitettu.",
      "@dateValidation": "Pitää olla ennen %{date}",
      "@all": "Kaikki",
      "@mushroomsTitle": "Sienet",
      "@substrateLabel": "Kasvualustamuistiinpanot",
      "@addPhotoGlyphLabel": "Lisää valokuva",
      "@setLocationGlyphLabel": "Valitse sijainti",
      "@geometryValidation": "Paikalla täytyy olla vähintään yksi kuvio.",
      "@dateInTheFutureValidation": "Päivämäärä ei voi olla tulevaisuudessa.",
      "@unitShortcutInsertHelp": "havainto",
      "@gatheringShortcutInsertHelp": "paikka",
      "@gatheringShortcutNavigateHelp": "paikkaan",
      "@unitShortcutNavigateHelp": "havaintoon",
      "@unitsTitleFormat": "Paikan %{idx} havainnot",
      "@legHelp": "Voit lisätä kaverisi käyttäjätunnuksen havainnoijaksi, jolloin havainto näkyy myös hänen omissa havainnoissaan. Automaattinen tekstin täydennys ehdottaa vahvistettujen kavereittesi nimiä. Voit myös lisätä muita havainnoijia kirjoittamalla heidän nimensä, vaikkeivat he olisi kavereitasi, tällöin näytetään punainen kolmio nimen kohdalla. Voit antaa kavereille oikeuden muokata lomaketta valitsemalla \"Kyllä\". Voit pyytää toista käyttäjää kaveriksesi profiilisivullasi. Profiilisi aukeaa klikkaamalla omaa käyttäjätunnustasi oikealla yläpalkissa. Etsi kaverisi nimellä hakemalla profiilisivulta ja valitse \"Lisää kaveriksi\". Sen jälkeen kun hän on vahvistanut pyyntösi omassa profiilissaan, olette kavereita ja voitte esim. Vihko-palvelussa tallentaa yhteisiä havaintoja.",
      "@biotooppiLabel": "Biotooppi",
      "@imageLabel": "Kuvat havainnosta",
      "@informalTaxonGroupsLabel": "Valitse lajiryhmä",
      "@taxonLabel": "Voit lisäksi kirjoittaa arvelemasi eliön lajinimen",
      "dateBeginLabel": "Havainnon päivämäärä",
      "@geometryLabel": "Paikka",
      "@imageValidation": "Lisää ainakin yksi kuva",
      "@unitNotesLabel": "Tarkempia tietoja havaitusta eliöstä ja havainnontitavasta",
      "@mapEmptyHelp": "Lisää kartalle nasta painamalla oikealla olevaa nappia",
      "@legPublicLabel": "Havainnoijien nimet ovat julkisia",
      "@legPublicHelp": "Tarvittaessa voit piilottaa havainnoijien nimet avoimesta aineistosta valitsemalla \"Ei\"-vaihtoehdon. Havainnoijien nimet ovat aina viranomaisten käytettävissä.",
      "@secureLevelLabel": "Havainnon tarkat paikkatiedot ovat julkisia",
      "@secureLevelHelp": "Valitsemalla \"Ei\"-vaihtoehdon havainnon paikkatiedot karkeistetaan 10 x 10 km² karttaruutuun avoimessa aineistossa. Havainnon tarkat paikkatiedot ovat aina viranomaisten käytettävissä. Karkeistettuihin havaintoihin liitetyt valokuvat ovat julkisia."
    }
  },
  "uiSchema": {
    "ui:shortcuts": {
      "alt": {
        "fn": "help",
        "delay": 1
      },
      "alt+F5": {
        "fn": "revalidate"
      },
      "Enter": {
        "fn": "navigate"
      },
      "shift+Enter": {
        "fn": "navigate",
        "reverse": true
      },
      "ctrl+Enter": {
        "fn": "textareaRowInsert"
      },
      "alt+ ": {
        "fn": "navigate"
      },
      "alt+shift+ ": {
        "fn": "navigate",
        "reverse": true
      },
      "alt+n": {
        "fn": "navigateArray"
      },
      "alt+p": {
        "fn": "navigateArray",
        "reverse": true
      },
      "alt+Insert": {
        "fn": "insert"
      },
      "alt+i": {
        "fn": "insert"
      },
      "alt+Delete": {
        "fn": "delete"
      },
      "alt+d": {
        "fn": "delete"
      }
    },
    "ui:order": [
      "gatheringEvent",
      "gatherings"
    ],
    "ui:field": "InjectField",
    "ui:options": {
      "injections": {
        "fields": [
          "editors",
          "secureLevel"
        ],
        "target": "gatheringEvent"
      }
    },
    "classNames": "well well-sm",
    "gatheringEvent": {
      "ui:field": "NestField",
      "ui:order": [
        "*",
        "legPublic",
        "secureLevel"
      ],
      "ui:options": {
        "nests": {
          "legEditor": {
            "fields": [
              "leg",
              "editors"
            ],
            "rootUiSchema": {
              "ui:field": "NestField",
              "ui:options": {
                "nests": {
                  "_legEditor": {
                    "fields": [
                      "leg",
                      "editors"
                    ],
                    "title": "",
                    "rootUiSchema": {
                      "ui:functions": [
                        {
                          "ui:field": "DependentBooleanField",
                          "ui:options": {
                            "booleanField": "editors",
                            "booleanDefiner": "leg"
                          }
                        },
                        {
                          "ui:field": "ArrayCombinerField"
                        }
                      ],
                      "ui:field": "TableField",
                      "ui:options": {
                        "specialRules": "legEditors",
                        "ui:buttonsDesktopLayout": true
                      },
                      "items": {
                        "ui:functions": {
                          "ui:field": "ContextInjectionField",
                          "ui:options": {
                            "injections": {
                              "/ui:options/rules/0/regexp": "^%{/creator}$"
                            }
                          }
                        },
                        "ui:field": "DependentDisableField",
                        "ui:options": {
                          "rules": [
                            {
                              "disableDefiner": "leg",
                              "disableField": "editors",
                              "regexp": "creator is injected here",
                              "inlineHelp": "@youMustBeEditor",
                              "disabledValueToDisplay": true
                            },
                            {
                              "disableDefiner": "leg",
                              "disableField": "editors",
                              "regexp": "^((?!(MA\\.\\d)).)*$"
                            }
                          ]
                        }
                      }
                    }
                  },
                  "legEditorSizeFixer": {
                    "fields": [
                      "_legEditor"
                    ],
                    "title": "",
                    "rootUiSchema": {
                      "ui:grid": {
                        "lg": 6,
                        "md": 6,
                        "sm": 9,
                        "xs": 12
                      }
                    }
                  }
                }
              }
            }
          }
        }
      },
      "leg": {
        "ui:widget": "AutosuggestWidget",
        "ui:help": "@legHelp",
        "ui:options": {
          "autosuggestField": "friends",
          "allowNonsuggestedValue": true,
          "suggestionReceive": "key",
          "preventTypingPattern": "^MA\\.\\d+$"
        }
      },
      "legPublic": {
        "ui:options": {
          "allowUndefined": false
        },
        "ui:help": "@legPublicHelp"
      }
    },
    "editors": {
      "ui:help": "@editorsHelp",
      "ui:options": {
        "allowUndefined": false
      }
    },
    "secureLevel": {
      "ui:widget": "AnyToBooleanWidget",
      "ui:help": "@secureLevelHelp",
      "ui:options": {
        "trueValue": "MX.secureLevelNone",
        "falseValue": "MX.secureLevelKM10",
        "allowUndefined": false
      }
    },
    "gatherings": {
      "ui:field": "SingleItemArrayField",
      "items": {
        "ui:functions": {
          "ui:field": "GeocoderField",
          "ui:options": {
            "fields": [
              "country",
              "municipality"
            ]
          }
        },
        "ui:field": "NestField",
        "ui:options": {
          "nests": {
            "dateWrapper": {
              "fields": [
                "dateBegin"
              ],
              "rootUiSchema": {
                "ui:grid": {
                  "lg": 4,
                  "md": 4,
                  "sm": 5,
                  "xs": 12
                }
              }
            },
            "placeWrapper": {
              "title": "",
              "fields": [
                "geometry",
                "country",
                "municipality",
                "locality",
                "localityDescription"
              ],
              "rootUiSchema": {
                "ui:field": "SplitField",
                "ui:title": "@geometryLabel",
                "ui:options": {
                  "splits": [
                    {
                      "fields": [
                        "geometry"
                      ],
                      "lg": 6,
                      "md": 6,
                      "sm": 6
                    },
                    {
                      "fields": [
                        "country",
                        "municipality",
                        "locality",
                        "localityDescription"
                      ]
                    }
                  ]
                }
              }
            }
          }
        },
        "ui:order": [
          "units",
          "*",
          "dateWrapper",
          "placeWrapper"
        ],
        "units": {
          "ui:field": "SingleItemArrayField",
          "ui:options": {
            "removable": false
          },
          "items": {
            "ui:order": [
              "images",
              "taxonWrapper",
              "*"
            ],
            "ui:functions": [
              {
                "ui:field": "FlatField",
                "ui:options": {
                  "fields": [
                    "identifications",
                    "unitFact"
                  ]
                }
              },
              {
                "ui:field": "AutosuggestField",
                "ui:options": {
                  "autosuggestField": "taxon",
                  "allowNonsuggestedValue": true,
                  "suggestionInputField": "identifications_0_taxon",
                  "suggestionValueField": "unitFact_autocompleteSelectedTaxonID",
                  "suggestionReceivers": {
                    "identifications_0_taxon": "value",
                    "unitFact_autocompleteSelectedTaxonID": "key"
                  },
                  "informalTaxonGroups": "informalTaxonGroups",
                  "renderInformalTaxonGroupSelector": false,
                  "query": {
                    "informalTaxonGroup": {
                      "parser": "arrayJoin",
                      "field": "informalTaxonGroups"
                    }
                  }
                }
              },
              {
                "ui:field": "NestField",
                "ui:options": {
                  "nests": {
                    "taxonWrapper": {
                      "fields": [
                        "informalTaxonGroups",
                        "identifications_0_taxon"
                      ],
                      "rootUiSchema": {
                        "ui:grid": {
                          "lg": {
                            "informalTaxonGroups": 2,
                            "identifications_0_taxon": 10
                          },
                          "md": {
                            "informalTaxonGroups": 3,
                            "identifications_0_taxon": 9
                          },
                          "sm": {
                            "informalTaxonGroups": 3,
                            "identifications_0_taxon": 9
                          },
                          "xs": 12
                        }
                      }
                    }
                  }
                }
              }
            ],
            "images": {
              "ui:field": "ImageArrayField",
              "ui:options": {
                "capturerVerbatimPath": "/gatheringEvent/leg"
              }
            },
            "taxonConfidence": {
              "ui:field": "HiddenField"
            },
            "unitFact_autocompleteSelectedTaxonID": {
              "ui:field": "HiddenField"
            },
            "informalTaxonGroups": {
              "ui:field": "SingleItemArrayField",
              "ui:options": {
                "renderTitleAsLabel": true
              },
              "items": {
                "ui:widget": "InformalTaxonGroupChooserWidget"
              }
            },
            "notes": {
              "ui:widget": "textarea"
            }
          }
        },
        "geometry": {
          "ui:field": "MapField",
          "ui:options": {
            "emptyHelp": "@mapEmptyHelp",
            "mapOptions": {
              "draw": {
                "marker": true,
                "circle": false,
                "rectangle": false,
                "polygon": false,
                "polyline": false
              },
              "controls": {
                "draw": {
                  "coordinateInput": false,
                  "undo": false,
                  "redo": false
                }
              }
            }
          },
          "ui:settings": [
            "/mapOptions/tileLayerName",
            "/mapOptions/overlayNames",
            "/mapOptions/tileLayerOpacity",
            "/mapOptions/tileLayers"
          ]
        },
        "dateBegin": {
          "ui:widget": "DateTimeWidget",
          "ui:options": {
            "showButtons": true
          }
        },
        "country": {
          "ui:readonly": true
        },
        "municipality": {
          "ui:readonly": true
        },
        "localityDescription": {
          "ui:widget": "textarea"
        }
      }
    }
  },
  "@type": "MHL.form",
  "@context": "http://schema.laji.fi/context/form.jsonld",
  "options": {
    "hideDraftButton": true,
    "allowTemplate": true,
    "simple": true
  }
}