{
  "id": "MHL.79",
  "name": "Glow worm form",
  "category": "MHL.categoryCitizenScience",
  "supportedLanguage": [
    "fi"
  ],
  "language": "fi",
  "title": "Kiiltomadot",
  "collectionID": "HR.3531",
  "logo": "https://cms.laji.fi/wp-content/uploads/2020/05/glow-worm-200.png",
  "fields": [
    {
      "name": "MZ.editors",
      "label": "@editorsLabel"
    },
    {
      "name": "MX.secureLevel",
      "label": "@secureLevelLabel",
      "options": {
        "default": "MX.secureLevelNone",
        "whitelist": [
          "MX.secureLevelKM10",
          "MX.secureLevelNone"
        ]
      }
    },
    {
      "name": "gatheringEvent",
      "label": "",
      "type": "fieldset",
      "validators": {
        "presence": {
          "allowEmpty": false
        }
      },
      "fields": [
        {
          "name": "MY.leg",
          "label": "@legLabel",
          "validators": {
            "presence": {
              "message": "@legPresenceValidation"
            },
            "length": {
              "minimum": 1,
              "message": "Vähintään yksi havainnoija täytyy ilmoittaa"
            }
          }
        },
        {
          "name": "MY.legPublic",
          "label": "@legPublicLabel",
          "type": "checkbox",
          "options": {
            "default": true
          }
        },
        {
          "name": "MY.dateBegin",
          "label": "Havaintopäivämäärä ja -aika",
          "options": {
            "excludeFromCopy": true
          },
          "validators": {
            "datetime": {
              "latest": "now",
              "notValid": "@dateInvalid",
              "tooLate": "@dateInTheFutureValidation"
            },
            "presence": {
              "message": "@dateBeginPresenceValidation"
            }
          }
        },
        {
          "name": "MY.taxonCensus",
          "label": "",
          "type": "fieldset",
          "fields": [
            {
              "name": "MY.censusTaxonID"
            },
            {
              "name": "MY.taxonCensusType",
              "options": {
                "default": "",
                "whitelist": [
                  "",
                  "MY.taxonCensusTypeCounted",
                  "MY.taxonCensusTypeNotCounted"
                ]
              }
            }
          ],
          "options": {
            "excludeFromCopy": true,
            "default": [
              {
                "censusTaxonID": "MX.192436",
                "taxonCensusType": "MY.taxonCensusTypeCounted"
              }
            ]
          }
        },
        {
          "name": "MY.artificialLight"
        },
        {
          "name": "MY.temperature"
        },
        {
          "name": "MY.rainIntensity"
        },
        {
          "name": "MY.cloudCover"
        },
        {
          "name": "gatheringFact",
          "label": "",
          "type": "fieldset",
          "fields": [
            {
              "name": "MY.sykeButterFlyCensusWind"
            }
          ]
        }
      ]
    },
    {
      "name": "gatherings",
      "type": "collection",
      "options": {
        "minItems": 1,
        "maxItems": 1
      },
      "validators": {
        "presence": {
          "message": "@gatheringsPresenceValidation",
          "allowEmpty": false
        }
      },
      "fields": [
        {
          "name": "MY.geometry",
          "label": ""
        },
        {
          "name": "MY.country"
        },
        {
          "name": "MY.biologicalProvince"
        },
        {
          "name": "MY.municipality"
        },
        {
          "name": "MY.locality"
        },
        {
          "name": "MY.localityDescription"
        },
        {
          "name": "MY.acknowledgeNoUnitsInCensus",
          "label": "Havaitsitko kiiltomatoja?",
          "options": {
            "default": false
          },
          "validators": {
            "crossCheck_0": {
              "check": [
                "units/*/maleIndividualCount",
                "units/*/femaleIndividualCount",
                "units/*/larvaIndividualCount"
              ],
              "valueMustBeIn": [
                false
              ],
              "message": "Jos olet kirjannut havaintietoja merkitse 'Havaitsin'"
            },
            "crossCheck_1": {
              "check": [
                "units/*/maleIndividualCount",
                "units/*/femaleIndividualCount",
                "units/*/larvaIndividualCount"
              ],
              "onlyWhenNoCheck": true,
              "valueMustBeIn": [
                true
              ],
              "message": "Jos et olet kirjannut havaintietoja merkitse 'En havainnut'"
            }
          }
        },
        {
          "name": "MY.observationMinutes"
        },
        {
          "name": "MY.habitat",
          "options": {
            "whitelist": [
              "MY.habitatEnumValue1",
              "MY.habitatEnumValue27",
              "MY.habitatEnumValue65",
              "MY.habitatEnumValue71",
              "MY.habitatEnumValue36"
            ]
          }
        },
        {
          "name": "MY.observationMinutes",
          "label": "Aktiiviseen etsimiseen käytetty aika minuutteina",
          "validators": {
            "numericality": {
              "greaterThanOrEqualTo": 1,
              "onlyInteger": true,
              "message": "Pitää olla enemmän kuin 0"
            }
          }
        },
        {
          "name": "units",
          "label": "",
          "type": "collection",
          "options": {
            "uniqueItems": false,
            "minItems": 1,
            "maxItems": 1,
            "excludeFromCopy": true
          },
          "fields": [
            {
              "name": "MY.recordBasis",
              "options": {
                "default": "MY.recordBasisHumanObservation"
              }
            },
            {
              "name": "identifications",
              "label": "",
              "options": {
                "minItems": 1,
                "maxItems": 1,
                "default": [
                  {
                    "taxonID": "MX.192436"
                  }
                ]
              },
              "type": "collection",
              "fields": [
                {
                  "name": "MY.taxonID"
                }
              ]
            },
            {
              "name": "MY.maleIndividualCount"
            },
            {
              "name": "MY.femaleIndividualCount"
            },
            {
              "name": "MY.larvaIndividualCount"
            },
            {
              "name": "MY.notes"
            },
            {
              "name": "unitFact",
              "type": "fieldset",
              "label": "",
              "fields": [
                {
                  "name": "MY.glowWormMicrohabitat",
                  "options": {
                    "minItems": 1,
                    "maxItems": 1
                  }
                }
              ]
            },
            {
              "name": "MZ.images",
              "options": {
                "excludeFromCopy": true
              },
              "label": "Kuvat havainnosta"
            }
          ]
        }
      ]
    }
  ],
  "uiSchema": {
    "ui:shortcuts": {
      "alt": {
        "fn": "help",
        "delay": 1
      },
      "Enter": {
        "fn": "navigate"
      },
      "shift+Enter": {
        "fn": "navigate",
        "reverse": true
      },
      "ctrl+Enter": {
        "fn": "textareaRowInsert"
      },
      "alt+ ": {
        "fn": "navigate"
      },
      "alt+shift+ ": {
        "fn": "navigate",
        "reverse": true
      },
      "alt+PageDown": {
        "fn": "navigateArray",
        "target": "root_gatherings",
        "targetLabel": "@gatheringShortcutNavigateHelp"
      },
      "alt+PageUp": {
        "fn": "navigateArray",
        "reverse": true,
        "target": "root_gatherings",
        "targetLabel": "@gatheringShortcutNavigateHelp"
      },
      "alt+ArrowRight": {
        "fn": "navigateArray",
        "target": "root_gatherings",
        "targetLabel": "@gatheringShortcutNavigateHelp"
      },
      "alt+ArrowLeft": {
        "fn": "navigateArray",
        "reverse": true,
        "target": "root_gatherings",
        "targetLabel": "@gatheringShortcutNavigateHelp"
      },
      "alt+ArrowUp": {
        "fn": "navigateArray",
        "reverse": true,
        "target": "root_gatherings_%{context[\"root_gatherings.activeIdx\"]}_units",
        "targetLabel": "@unitShortcutNavigateHelp"
      },
      "alt+ArrowDown": {
        "fn": "navigateArray",
        "target": "root_gatherings_%{context[\"root_gatherings.activeIdx\"]}_units",
        "targetLabel": "@unitShortcutNavigateHelp"
      },
      "alt+h": {
        "fn": "navigateArray",
        "reverse": true,
        "target": "root_gatherings",
        "targetLabel": "@gatheringShortcutNavigateHelp"
      },
      "alt+j": {
        "fn": "navigateArray",
        "target": "root_gatherings_%{context[\"root_gatherings.activeIdx\"]}_units",
        "targetLabel": "@unitShortcutNavigateHelp"
      },
      "alt+k": {
        "fn": "navigateArray",
        "reverse": true,
        "target": "root_gatherings_%{context[\"root_gatherings.activeIdx\"]}_units",
        "targetLabel": "@unitShortcutNavigateHelp"
      },
      "alt+l": {
        "fn": "navigateArray",
        "target": "root_gatherings",
        "targetLabel": "@gatheringShortcutNavigateHelp"
      },
      "alt+n": {
        "fn": "navigateArray"
      },
      "alt+p": {
        "fn": "navigateArray",
        "reverse": true
      },
      "alt+Insert": {
        "fn": "insert"
      },
      "alt+i": {
        "fn": "insert"
      },
      "alt+Delete": {
        "fn": "delete"
      },
      "alt+d": {
        "fn": "delete"
      },
      "alt+u": {
        "fn": "insert",
        "target": "root_gatherings_%{context[\"root_gatherings.activeIdx\"]}_units",
        "targetLabel": "@unitShortcutInsertHelp"
      },
      "alt+m": {
        "fn": "splitLineTransectByMeters",
        "target": "root_gatherings"
      }
    },
    "ui:order": [
      "*",
      "gatheringEvent",
      "gatherings"
    ],
    "ui:field": "InjectField",
    "ui:options": {
      "injections": {
        "fields": [
          "editors",
          "secureLevel"
        ],
        "target": "gatheringEvent"
      }
    },
    "ui:annotations": {
      "formId": "MHL.21",
      "container": "modal",
      "adminOnly": true,
      "add": {
        "type": "MAN.typeOpinion"
      },
      "buttonsPath": "/gatheringEvent"
    },
    "gatheringEvent": {
      "ui:field": "NestField",
      "ui:order": [
        "legEditor",
        "legPublic",
        "secureLevel",
        "taxonCensus",
        "*"
      ],
      "ui:options": {
        "nests": {
          "legEditor": {
            "fields": [
              "leg",
              "editors"
            ],
            "rootUiSchema": {
              "ui:field": "NestField",
              "ui:options": {
                "nests": {
                  "_legEditor": {
                    "fields": [
                      "leg",
                      "editors"
                    ],
                    "title": "",
                    "rootUiSchema": {
                      "ui:functions": [
                        {
                          "ui:field": "DependentBooleanField",
                          "ui:options": {
                            "booleanField": "editors",
                            "booleanDefiner": "leg"
                          }
                        },
                        {
                          "ui:field": "ArrayCombinerField"
                        }
                      ],
                      "ui:field": "TableField",
                      "ui:options": {
                        "specialRules": "legEditors",
                        "ui:buttonsDesktopLayout": true,
                        "ui:deleteHelp": "Poista havinnoijan nimi"
                      },
                      "items": {
                        "ui:functions": {
                          "ui:field": "ContextInjectionField",
                          "ui:options": {
                            "injections": {
                              "/ui:options/rules/0/regexp": "^%{/creator}$"
                            }
                          }
                        },
                        "ui:field": "DependentDisableField",
                        "ui:options": {
                          "rules": [
                            {
                              "disableDefiner": "leg",
                              "disableField": "editors",
                              "regexp": "creator is injected here",
                              "inlineHelp": "@youMustBeEditor",
                              "disabledValueToDisplay": true
                            },
                            {
                              "disableDefiner": "leg",
                              "disableField": "editors",
                              "regexp": "^((?!(MA\\.\\d)).)*$"
                            }
                          ]
                        }
                      }
                    }
                  },
                  "legEditorSizeFixer": {
                    "fields": [
                      "_legEditor"
                    ],
                    "title": "",
                    "rootUiSchema": {
                      "ui:grid": {
                        "lg": 6,
                        "md": 6,
                        "sm": 9,
                        "xs": 12
                      }
                    }
                  }
                }
              }
            }
          }
        }
      },
      "dateBegin": {
        "ui:widget": "DateTimeWidget",
        "ui:options": {
          "time": true,
          "showButtons": true
        },
        "ui:help": "Kirjoita havainnointipäivämäärä tai valitse päivämäärä kalenterista tai pikavalikolla"
      },
      "leg": {
        "ui:widget": "AutosuggestWidget",
        "ui:help": "Havainnoijan nimi, muodossa: etunimi sukunimi",
        "ui:options": {
          "autosuggestField": "friends",
          "allowNonsuggestedValue": true,
          "suggestionReceive": "key",
          "preventTypingPattern": "^MA\\.\\d+$"
        }
      },
      "legPublic": {
        "ui:options": {
          "allowUndefined": false
        },
        "ui:help": "@legPublicHelp"
      },
      "taxonCensus": {
        "ui:field": "HiddenField"
      },
      "ui:grid": {
        "rows": [
          [
            "legEditor"
          ],
          [
            "legPublic"
          ],
          [
            "secureLevel"
          ],
          [
            "artificialLight"
          ],
          [
            "dateBegin"
          ],
          [
            "temperature",
            "rainIntensity"
          ],
          [
            "cloudCover",
            "gatheringFact"
          ]
        ],
        "lg": {
          "legEditor": 12,
          "temperature": 3,
          "rainIntensity": 3,
          "cloudCover": 3,
          "gatheringFact": 3,
          "*": 6
        },
        "md": {
          "legEditor": 12,
          "*": 6
        },
        "sm": {
          "legEditor": 12,
          "*": 6
        },
        "xs": 12
      }
    },
    "editors": {
      "ui:help": "@editorsHelp",
      "ui:options": {
        "allowUndefined": false
      }
    },
    "secureLevel": {
      "ui:widget": "AnyToBooleanWidget",
      "ui:help": "@secureLevelHelp",
      "ui:options": {
        "trueValue": "MX.secureLevelNone",
        "falseValue": "MX.secureLevelKM10",
        "allowUndefined": false
      }
    },
    "gatherings": {
      "ui:functions": {
        "ui:field": "MapArrayField",
        "ui:settings": [
          "/mapOptions/tileLayerName",
          "/mapOptions/overlayNames",
          "/mapOptions/tileLayerOpacity",
          "/mapOptions/tileLayers"
        ],
        "ui:options": {
          "geometryField": "geometry",
          "mapSizes": {
            "lg": 8,
            "md": 6,
            "sm": 6,
            "xs": 12
          },
          "mapOptions": {
            "tileLayerName": "maastokartta",
            "controls": {
              "location": false,
              "draw": {
                "clear": true,
                "undo": false,
                "redo": false
              }
            },
            "tileLayerOpacity": 0.5,
            "draw": {
              "single": true
            }
          },
          "belowFields": [
            "units"
          ],
          "minHeight": 400,
          "inlineUiSchemaRoot": {
            "ui:title": "Paikkatiedot"
          }
        }
      },
      "ui:field": "SingleItemArrayField",
      "items": {
        "ui:functions": [
          {
            "ui:field": "GeocoderField",
            "ui:options": {
              "button": false
            }
          },
          {
            "ui:field": "NamedPlaceSaverField"
          },
          {
            "ui:field": "NamedPlaceChooserField"
          }
        ],
        "ui:order": [
          "*",
          "gatheringFact",
          "units"
        ],
        "geometry": {
          "ui:field": "HiddenField"
        },
        "taxonCensus": {
          "ui:field": "HiddenField"
        },
        "acknowledgeNoUnitsInCensus": {
          "ui:options": {
            "invert": true,
            "trueLabel": "Havaitsin",
            "falseLabel": "En havainnut",
            "allowUndefined": false
          }
        },
        "ui:grid": {
          "lg": {
            "notes": 6,
            "gatheringFact": 6
          },
          "md": {
            "notes": 6,
            "gatheringFact": 6
          },
          "sm": {
            "notes": 6,
            "gatheringFact": 6
          },
          "xs": {
            "notes": 12,
            "gatheringFact": 12
          }
        },
        "units": {
          "ui:field": "SingleItemArrayField",
          "items": {
            "ui:grid": {
              "lg": 3,
              "md": 3,
              "sm": 4,
              "xs": 12
            },
            "identifications": {
              "ui:field": "HiddenField"
            },
            "recordBasis": {
              "ui:widget": "HiddenWidget"
            },
            "images": {
              "ui:field": "ImageArrayField",
              "ui:options": {
                "capturerVerbatimPath": "/gatheringEvent/leg"
              }
            },
            "ui:order": [
              "femaleIndividualCount",
              "*",
              "notes",
              "images"
            ]
          }
        }
      }
    }
  },
  "translations": {
    "en": {
      "@success": "Havaintosi on nyt tallennettu. Kiitos osallistumisestasi! Jos sinulla on kysyttävää, ole yhteydessä linnustonseuranta@luomus.fi",
      "@description": "Tämä on Luonnontieteellisen keskusmuseon Linnustonseurannan vakiolinjalaskentojen havaintojen ilmoitusjärjestelmä. Muiden linjojen kuin vakiolinjojen tulokset ilmoitetaan toistaiseksi tuttuun tapaan Excel-lomakkeella. Lisätietoa laskennoista ja laskentaohjeita löydät Linnustonseurannan sivuilta: <a target=\"_blank\" rel=\"noopener noreferrer\" href=\"https://www.luomus.fi/fi/pesimalintujen-linja-pistelaskenta\">https://www.luomus.fi/fi/pesimalintujen-linja-pistelaskenta</a><ol><li>Ilmoita lomakkeella laskennan ja reitin perustiedot sekä havaitut linnut biotoopeittain. Saat lisäohjeita ?-kuvakkeista kenttien vieressä tai Linjalaskentojen etusivun käyttöohjeesta.</li><li>Lomakkeella voit siirtyä kentästä toiseen joko hiiren avulla tai pikanäppäimillä (tab = seuraavaan kenttään, Alt + nuoli ylös = edelliselle havaintoriville, Alt + nuoli alas = seuraavalle havaintoriville).</li><li>Kirjaa havaitut linnut biotoopeittain. Voit valita biotooppipätkät joko kartalta klikkaamalla tai liikkua biotooppipätkästä toiseen nuolinäppäimillä havaintojensyötön yläpuolella. Kirjaa muuttuneet biotoopit ”pääsaran biotooppi” -kenttään.</li><li>Tee mahdolliset muutokset biotooppipätkien pituuteen tai reitin kulkuun kartan työkaluja käyttäen. Voit muokata linjan pistettä ensin tuplaklikkaamalla ja sitten raahaamalla. Pisteen voi poistaa klikkaamalla sitä hiiren oikealla näppäimellä. Jos teit virheen kartan muokkauksessa, käytä ”Kumoa”-työkalua kartan oikeasta reunasta. Seuraa kartalla kursorin viereen tulevia ohjetekstejä ja katso perusteellisempaa ohjetta Linjalaskentojen etusivun käyttöohjeesta.</li><li>Havaintoja voit syöttää joko ns. pikasyöttötilassa tai erillisten kenttien avulla. Pikasyöttötilaan ja siitä pois siirrytään havaintojensyötön oikean reunan nuolikuvakkeesta. Käytössä ovat 3+3 lyhenteet, tieteelliset ja suomenkieliset nimet sekä pikasyöttötilassa lisäksi yleisimpien lajien 2-kirjaimiset lyhenteet (linkki 2-kirjaimisiin lyhenteisiin: <a target=\"_blank\" rel=\"noreferrer noopener\" href=\"https://www.luomus.fi/fi/linjalaskennassa-sallitut-kaksikirjaimiset-lajilyhenteet\">https://www.luomus.fi/fi/linjalaskennassa-sallitut-kaksikirjaimiset-lajilyhenteet</a>). Voit käyttää pieniä tai isoja kirjaimia ja käyttää välilyöntejä tai kirjoittaa kaiken yhteen. Katso ohjetta ”Havainnot”-kentän alla.</li><li>Kun olet syöttänyt havainnot, ja haluat tallentaa ja lähettää tiedot eteenpäin Linnustonseurannalle, paina: ”Tallenna julkisena”.</li><li>Tallennuksen jälkeen tulee näkyviin lista mahdollisista virheistä ja varoituksista. Korjaa virheet ja tallenna uudelleen.</li><li>Tallennuksen jälkeen näet koosteen tallentamastasi havaintoerästä, esimerkiksi havaituista lajeista ja parimääristä, pääsarkaprosentista, kokonaislajimäärästä, etenemisnopeudesta jne.</li><li>Pääset tarvittaessa muokkaamaan tallennettua havaintoerää ”Omat havaintoeräni” –kohdasta. Kunkin havaintoerän vasemmassa laidassa on valittavana ”Näytä havaintoerä” ja ”Siirry muokkaussivulle” -kuvakkeet.</li></ol>",
      "@npDescription": "<p>Tämä on Luonnontieteellisen keskusmuseon Linnustonseurannan vakiolinjalaskentojen havaintojen ilmoitusjärjestelmä. Täällä voit tarkastella linjojen sijaintia ja tietoja, varata vakiolinjan, ilmoittaa laskennan havainnot ja tarkastella linjalaskentojen tuloksia. Lisätietoa laskennoista ja laskentaohjeita löydät Linnustonseurannan sivuilta: <a href=\"https://www.luomus.fi/fi/pesimalintujen-linja-pistelaskenta\" target=\"_blank\" rel=\"noopener noreferref\">https://www.luomus.fi/fi/pesimalintujen-linja-pistelaskenta</a></p><p>Valitsemalla alla luettelosta tai kartalta vakiolinjan, voit:</p><ol><li>Tarkastella yleisiä reittien tietoja ja varaustilannetta.</li><li>Tehdä varauksen tulevalle kaudelle ja vapauttaa tekemäsi varauksen.</li><li>Katsoa ja tulostaa vakiolinjan kartan ja maastolomakkeen. Valitse vakiolinja, minkä jälkeen valitse oikeasta reunasta ”Katso ja tulosta kartta ja maastolomake”. Lomakkeita ei kannata tulostaa ennen linnustonseurannan lupaa, koska reittiin on voinut tulla hyväksymättömiä reittimuutoksia.</li><li>Tarkastella tunnuksellasi valitulta vakiolinjalta ilmoitettuja tuloksia.</li><li>Siirtyä ilmoittamaan havaintoja vakiolinjalta, jonka olet varannut. Valitse vakiolinja, minkä jälkeen klikkaa ”ilmoita uusi laskenta tälle reitille”.</ol><p>Jos sinulla on kysyttävää, ota yhteyttä <a target=\"_blank\" href=\"mailto:linnustonseuranta@luomus.fi\">linnustonseuranta@luomus.fi</a></p>",
      "@npUseLabel": "Ilmoita uusi laskenta tälle reitille",
      "@editorsLabel": "Edit rights",
      "@legLabel": "Observers",
      "@gatheringsLabel": "Point",
      "@gatheringsImagesLabel": "Images of the site",
      "@unitsLabel": "Observations",
      "@editorsHelp": "If you report an identified user as an observer and the user has added you as a friend, you can give the user rights to edit this field trip report. Additionally observations from this field trip report are shown to this particular user among his/her own observations.",
      "@gatheringsHelp": "Start reporting observations by drawing the observation site on the map",
      "@gatheringsItemsTitle": "Information about the observation site",
      "@time": "Time",
      "@addGathering": "Add a place",
      "@addUnit": "Add an observation",
      "@copyUnit": "Copy the observation",
      "@youMustBeEditor": "You must be an editor.",
      "@legPresenceValidation": "At least one observer must be reported.",
      "@gatheringsPresenceValidation": "At least one location must be reported.",
      "@unitsPresenceValidation": "At least one observation must be reported.",
      "@dateValidation": "Must be before %{date}",
      "@taxonValidation": "Name is required",
      "@all": "All",
      "@geometryValidation": "Gathering must have at least one feature.",
      "@title": "Bird line transect",
      "@provinceLabel": "Geobiological province",
      "@municipalityLabel": "Municipality",
      "@biotooppiLabel": "Inner route field biotope",
      "@havaintopaivienmaaraLabel": "Observation Days Count",
      "@AhvenanmaaLabel": "Ahvenanmaa",
      "@UusimaaLabel": "Uusimaa",
      "@EtelaKarjalaLabel": "Etelä-Karjala",
      "@VarsinaisSuomiLabel": "Varsinais-Suomi",
      "@SatakuntaLabel": "Varsinais-Suomi",
      "@EtelaHameLabel": "Etelä-Häme",
      "@EtelaSavoLabel": "Etelä-Savo",
      "@LaatokanKarjalaLabel": "Laatokan Karjala",
      "@EtelaPohjanmaaLabel": "Etelä-Pohjanmaa",
      "@PohjoisHameLabel": "Pohjois-Häme",
      "@PohjoisSavoLabel": "Pohjois-Savo",
      "@PohjoinKarjalaLabel": "Pohjois-Karjala",
      "@KeskiPohjanmaaLabel": "Keski-Pohjanmaa",
      "@KainuuLabel": "Kainuu",
      "@OulunPohjanmaaLabel": "Oulun Pohjanmaa",
      "@PeraPohjanmaaLabel": "Perä-Pohjanmaa",
      "@KoillismaaLabel": "Koillismaa",
      "@KittilanLappiLabel": "Kittilän Lappi",
      "@SompionLappiLabel": "Sompion Lappi",
      "@EnontekionLappiLabel": "Enontekiön Lappi",
      "@InarinLappiLabel": "Inarin Lappi",
      "@addPhotoGlyphLabel": "Lisää valokuva",
      "@setLocationGlyphLabel": "Valitse sijainti",
      "documentNotesLabel": "Additional information about the line transect",
      "@taxonLabel": "Species",
      "@unitShortcutInsertHelp": "unit",
      "@gatheringShortcutNavigateHelp": "segment",
      "@unitShortcutNavigateHelp": "unit",
      "@notStringValidation": "Value in %{key} is not of type string",
      "@invalidBiotopValidation": "Biotope should be one of K,M,S,L,J,P,H,R,N,V,A,T or X but '%{value}' given",
      "@invalidFocusValidation": "Invalid second character should be one of %{key}, but got %{value}",
      "@invalidSizeValidation": "Invalid measurement given should be %{key}, but got %{value}",
      "@invalidKValidation": "When K is given, number should be between 1-7. Now '%{value}' given.",
      "@invalidPKValidation": "When K is given for trees, number should be between 2-35. Now '%{value}' given.",
      "@invalidAValidation": "When A is given, number should be between 1-6. Now '%{value}' given.",
      "@invalidXValidation": "Invalid biotope other. Should only contain focusing character after X and nothing else",
      "@invalidTaxon": "Not known",
      "@invalidCountedMin": "Could not find any observations.",
      "@invalidCountedMax": "Observations exists but biotope is marked as not counted.",
      "@tooLongValidation": "Biotope code has some extra values that shouldn't be there. Place use notes fields instead",
      "@tooShortValidation": "Biotope code is too sort!",
      "@individualCountValidation": "Individual count has to be greater that 1 when flock seen",
      "@timeEndValidation": "Time end must be later than time start",
      "@pairCountValidation": "Pair count cannot be greater than individual count",
      "@startPointDeviationHelp": "If the transect length calculation was started from somewhere else than the defined start point, enter the deviation from the real start point to the defined start point here.",
      "@habitatClassificationHelp": "<u>The biotope code</u> has three parts. The first <b>CAPITAL</b> letter tells the biotope, and the next number or <b>CAPITAL</b> letter specifies it more precisely. After the first part is written mean height of the forest on forested biotopes, and the clearing size classification on clearing biotopes. <a href=\"https://www.luomus.fi/sites/default/files/files/linjalomake-e.pdf\" target=\"_blank\" rel=\"noreferrer\">Read more</a>",
      "@shortHandTextHelp": "<div> <strong>Write SPECIES (a) (count) Code (A/P) to the short hand field.</strong> <p> <table class=\"table table-condensed\"> <thead> <tr> <th>Code</th><th>Quality</th><th>Count</th> </tr> </thead> <tbody> <tr> <td>x</td><td>Singing</td><td>Individual count</td> </tr> <tr> <td>v</td><td>Other sounds</td><td>Individual count</td> </tr> <tr> <td>o</td><td>Seen</td><td>Individual count</td> </tr> <tr> <td>k</td><td>Male</td><td>Individual count</td> </tr> <tr> <td>n</td><td>Female</td><td>Individual count</td> </tr> <tr> <td>y</td><td>Overflight</td><td>Individual count</td> </tr> <tr> <td>a count o</td><Td>Flock</Td><td>Individual count</td> </tr> <tr> <td>a count y</td><td>Flock overflight</td><td>Individual count</td> </tr> <tr> <td>pair</td><td>Pair</td><td>Pair count</td> </tr> <tr> <td>brood</td><td>Brood</td><td>Pair count</td> </tr> <tr> <td>nest</td><td>Nest</td><td>Pair count</td> </tr> </tbody> </table> </p> <p> <table class=\"table table-condensed\"> <tbody> <tr> <th>SPECIES</th><td>The code of the species of length two or six. Required.</td> </tr> <tr> <th>a</th><td>If the sighting is a flock, enter 'a' before the count. Otherwise, dont enter 'a'. </td></tr> <tr> <th>Count</th><td>Individual count or pair count for the codes  \"pair\", \"flock\", and \"nest\". If left out, the count will be 1. </td></tr> <tr> <th>Code</th><td>The list of codes is above. Required.</td></tr> <tr> <th>A/P</th><td>A = Outer route field, P = Inner route field. If left out, the area will be A. </td></tr> </tbody> </table> </p> <p> You can use capital or minuscule letters. You can use spaces or write everything withou spaces.</p> <p> Examples: <i>TTX, RRvp, pt2xp, ec2y, CSa6y, CORNIX O P, cornixop, TM2pariP, PD3k</i> </p> </div>",
      "@legPublicLabel": "Observer names are public",
      "@legPublicHelp": "You can hide the observer names if needed by selecting \"No\". The observer names are always available to authoritatives.",
      "@shortHandTextLabel": "Shorthand",
      "@timeStartLabel": "Time",
      "@dateBeginPresenceValidation": "Date is required",
      "@documentNotesLabel": "",
      "@existingGatheringsInNpValidation": "Kyseiselle laskentajaksolle on jo tehty laskenta valitulta reitiltä.",
      "@dateNotInAnyRangeValidation": "Päivämäärä on laskentajaksojen ulkopuolella.",
      "@secureLevelLabel": "The observations geographic information is public in detail",
      "@secureLevelHelp": "By selecting \"No\" the observations geographic information will be coarsened to a 10 x 10 km² square in public material. The geographic information will always be available to authoritatives in detail. Images attached to coarsened observations are public."
    },
    "sv": {
      "@success": "Linjalaskennan havaintosi on nyt tallennettu. Kiitos osallistumisestasi! Jos sinulla on kysyttävää, ole yhteydessä linnustonseuranta@luomus.fi",
      "@description": "Tämä on Luonnontieteellisen keskusmuseon Linnustonseurannan vakiolinjalaskentojen havaintojen ilmoitusjärjestelmä. Muiden linjojen kuin vakiolinjojen tulokset ilmoitetaan toistaiseksi tuttuun tapaan Excel-lomakkeella. Lisätietoa laskennoista ja laskentaohjeita löydät Linnustonseurannan sivuilta: <a target=\"_blank\" rel=\"noopener noreferrer\" href=\"https://www.luomus.fi/fi/pesimalintujen-linja-pistelaskenta\">https://www.luomus.fi/fi/pesimalintujen-linja-pistelaskenta</a><ol><li>Ilmoita lomakkeella laskennan ja reitin perustiedot sekä havaitut linnut biotoopeittain. Saat lisäohjeita ?-kuvakkeista kenttien vieressä tai Linjalaskentojen etusivun käyttöohjeesta.</li><li>Lomakkeella voit siirtyä kentästä toiseen joko hiiren avulla tai pikanäppäimillä (tab = seuraavaan kenttään, Alt + nuoli ylös = edelliselle havaintoriville, Alt + nuoli alas = seuraavalle havaintoriville).</li><li>Kirjaa havaitut linnut biotoopeittain. Voit valita biotooppipätkät joko kartalta klikkaamalla tai liikkua biotooppipätkästä toiseen nuolinäppäimillä havaintojensyötön yläpuolella. Kirjaa muuttuneet biotoopit ”pääsaran biotooppi” -kenttään.</li><li>Tee mahdolliset muutokset biotooppipätkien pituuteen tai reitin kulkuun kartan työkaluja käyttäen. Voit muokata linjan pistettä ensin tuplaklikkaamalla ja sitten raahaamalla. Pisteen voi poistaa klikkaamalla sitä hiiren oikealla näppäimellä. Jos teit virheen kartan muokkauksessa, käytä ”Kumoa”-työkalua kartan oikeasta reunasta. Seuraa kartalla kursorin viereen tulevia ohjetekstejä ja katso perusteellisempaa ohjetta Linjalaskentojen etusivun käyttöohjeesta.</li><li>Havaintoja voit syöttää joko ns. pikasyöttötilassa tai erillisten kenttien avulla. Pikasyöttötilaan ja siitä pois siirrytään havaintojensyötön oikean reunan nuolikuvakkeesta. Käytössä ovat 3+3 lyhenteet, tieteelliset ja suomenkieliset nimet sekä pikasyöttötilassa lisäksi yleisimpien lajien 2-kirjaimiset lyhenteet (linkki 2-kirjaimisiin lyhenteisiin: <a target=\"_blank\" rel=\"noreferrer noopener\" href=\"https://www.luomus.fi/fi/linjalaskennassa-sallitut-kaksikirjaimiset-lajilyhenteet\">https://www.luomus.fi/fi/linjalaskennassa-sallitut-kaksikirjaimiset-lajilyhenteet</a>). Voit käyttää pieniä tai isoja kirjaimia ja käyttää välilyöntejä tai kirjoittaa kaiken yhteen. Katso ohjetta ”Havainnot”-kentän alla.</li><li>Kun olet syöttänyt havainnot, ja haluat tallentaa ja lähettää tiedot eteenpäin Linnustonseurannalle, paina: ”Tallenna julkisena”.</li><li>Tallennuksen jälkeen tulee näkyviin lista mahdollisista virheistä ja varoituksista. Korjaa virheet ja tallenna uudelleen.</li><li>Tallennuksen jälkeen näet koosteen tallentamastasi havaintoerästä, esimerkiksi havaituista lajeista ja parimääristä, pääsarkaprosentista, kokonaislajimäärästä, etenemisnopeudesta jne.</li><li>Pääset tarvittaessa muokkaamaan tallennettua havaintoerää ”Omat havaintoeräni” –kohdasta. Kunkin havaintoerän vasemmassa laidassa on valittavana ”Näytä havaintoerä” ja ”Siirry muokkaussivulle” -kuvakkeet.</li></ol>",
      "@npDescription": "<p>Tämä on Luonnontieteellisen keskusmuseon Linnustonseurannan vakiolinjalaskentojen havaintojen ilmoitusjärjestelmä. Täällä voit tarkastella linjojen sijaintia ja tietoja, varata vakiolinjan, ilmoittaa laskennan havainnot ja tarkastella linjalaskentojen tuloksia. Lisätietoa laskennoista ja laskentaohjeita löydät Linnustonseurannan sivuilta: <a href=\"https://www.luomus.fi/fi/pesimalintujen-linja-pistelaskenta\" target=\"_blank\" rel=\"noopener noreferref\">https://www.luomus.fi/fi/pesimalintujen-linja-pistelaskenta</a></p><p>Valitsemalla alla luettelosta tai kartalta vakiolinjan, voit:</p><ol><li>Tarkastella yleisiä reittien tietoja ja varaustilannetta.</li><li>Tehdä varauksen tulevalle kaudelle ja vapauttaa tekemäsi varauksen.</li><li>Katsoa ja tulostaa vakiolinjan kartan ja maastolomakkeen. Valitse vakiolinja, minkä jälkeen valitse oikeasta reunasta ”Katso ja tulosta kartta ja maastolomake”. Lomakkeita ei kannata tulostaa ennen linnustonseurannan lupaa, koska reittiin on voinut tulla hyväksymättömiä reittimuutoksia.</li><li>Tarkastella tunnuksellasi valitulta vakiolinjalta ilmoitettuja tuloksia.</li><li>Siirtyä ilmoittamaan havaintoja vakiolinjalta, jonka olet varannut. Valitse vakiolinja, minkä jälkeen klikkaa ”ilmoita uusi laskenta tälle reitille”.</ol><p>Jos sinulla on kysyttävää, ota yhteyttä <a target=\"_blank\" href=\"mailto:linnustonseuranta@luomus.fi\">linnustonseuranta@luomus.fi</a></p>",
      "@npUseLabel": "Ilmoita uusi laskenta tälle reitille",
      "@editorsLabel": "Redigeringsrättigheter",
      "@legLabel": "Observatörer",
      "@gatheringsLabel": "Point",
      "@gatheringsImagesLabel": "Bilder av observationsplats",
      "@unitsLabel": "Observationer",
      "@editorsHelp": "Om du rapporterar en identifierad användare som observatör och användaren har lagt till dig som en vän, kan du ge användaren rätt att ändra denna fältbesöksrapport. Förutom observationer från denna fältbesöksrapport visas till användaren bland hans/hennes egna observationer.",
      "@gatheringsHelp": "Börja rapportera observationer genom att dra observationsplatsen på kartan",
      "@gatheringsItemsTitle": "Information av observationsplats",
      "@time": "Tid",
      "@addGathering": "Lägg till en plats",
      "@addUnit": "Lägg till en observation",
      "@copyUnit": "Kopiera observationen",
      "@youMustBeEditor": "Du måste ha redigeringsrättigheter.",
      "@legPresenceValidation": "Åtminstone en observatör måste rapporteras.",
      "@gatheringsPresenceValidation": "Åtminstone ett plats måste rapporteras.",
      "@unitsPresenceValidation": "Åtminstone en observation måste rapporteras.",
      "@dateValidation": "Måste vara före %{date}",
      "@taxonValidation": "Namnet krävs",
      "@all": "Alla",
      "@geometryValidation": "Platsen måste ha åtminstone en figur",
      "@title": "Maalintujen linjalaskennat",
      "@provinceLabel": "Eliömaakunta",
      "@municipalityLabel": "Kunta",
      "@biotooppiLabel": "Pääsaran biotooppi",
      "@havaintopaivienmaaraLabel": "havaintopäivien määrä",
      "@pyrgusmalvaeLabel": "Pyrgus malvae - mansikkakirjosiipi",
      "@pyrgusalveusLabel": "Pyrgus alveus - tummakirjosiipi",
      "@AhvenanmaaLabel": "Ahvenanmaa",
      "@UusimaaLabel": "Uusimaa",
      "@EtelaKarjalaLabel": "Etelä-Karjala",
      "@VarsinaisSuomiLabel": "Varsinais-Suomi",
      "@SatakuntaLabel": "Varsinais-Suomi",
      "@EtelaHameLabel": "Etelä-Häme",
      "@EtelaSavoLabel": "Etelä-Savo",
      "@LaatokanKarjalaLabel": "Laatokan Karjala",
      "@EtelaPohjanmaaLabel": "Etelä-Pohjanmaa",
      "@PohjoisHameLabel": "Pohjois-Häme",
      "@PohjoisSavoLabel": "Pohjois-Savo",
      "@PohjoinKarjalaLabel": "Pohjois-Karjala",
      "@KeskiPohjanmaaLabel": "Keski-Pohjanmaa",
      "@KainuuLabel": "Kainuu",
      "@OulunPohjanmaaLabel": "Oulun Pohjanmaa",
      "@PeraPohjanmaaLabel": "Perä-Pohjanmaa",
      "@KoillismaaLabel": "Koillismaa",
      "@KittilanLappiLabel": "Kittilän Lappi",
      "@SompionLappiLabel": "Sompion Lappi",
      "@EnontekionLappiLabel": "Enontekiön Lappi",
      "@InarinLappiLabel": "Inarin Lappi",
      "@addPhotoGlyphLabel": "Lisää valokuva",
      "@setLocationGlyphLabel": "Valitse sijainti",
      "documentNotesLabel": "Ytterligare information om linjetransekten",
      "@taxonLabel": "Arter",
      "@unitShortcutInsertHelp": "observation",
      "@gatheringShortcutNavigateHelp": "segment",
      "@unitShortcutNavigateHelp": "observation",
      "@notStringValidation": "%{key} ei ole tyypiltään tekstiä",
      "@invalidBiotopValidation": "Biotoopin täytyy olla joko K,M,S,L,J,P,H,R,N,V,A,T tai X, mutta se oli '%{value}'",
      "@invalidFocusValidation": "Toisen kirjaimen täytyy olla yksi arvojoukosta %{key}, mutta se oli %{value}",
      "@invalidSizeValidation": "Väärä kokoluokka annettiin. Kokoluokan pitäisi olla %{key}, mutta se oli %{value}",
      "@invalidKValidation": "K pitäisi olla välillä 1-35. Nyt se oli '%{value}'.",
      "@invalidPKValidation": "Kun on kyse puista, niin K pitäisi olla välillä 2-35. Nyt se oli '%{value}'.",
      "@invalidAValidation": "A pitäisi olla välillä 1-6. Nyt se oli '%{value}'.",
      "@invalidXValidation": "Väärä MUU. Pitäisi olla vain tarkentava kirjain tai X, eikä mitään muuta.",
      "@invalidTaxon": "Ei tunnettu",
      "@invalidCountedMin": "Ei löytynyt yhtään ilmoitettua havaintoa.",
      "@invalidCountedMax": "Havaintoja ilmoitettu, vaikka biotooppia ei ole laskettu.",
      "@tooLongValidation": "Biotoopin koodi sisältää ylimääräisiä arvoja. Käytä lisätiedot kenttää mieluummin.",
      "@tooShortValidation": "Biotoopin koodi on liian lyhyt!",
      "@individualCountValidation": "Yksilömäärän tulee olla suurempi kuin 1 kun parvi on nähty.",
      "@timeEndValidation": "Loppuajan tulee olla alkuaikaa myöhemmin",
      "@pairCountValidation": "Parimäärä ei saa olla suurempi kuin yksilömäärä.",
      "@startPointDeviationHelp": "Mikäli laskenta aloitettiin muusta kuin aiemmasta aloituspisteestä, merkitse tähän poikkeama metreinä reitin kiertosuuntaan.",
      "@habitatClassificationHelp": "<u>Biotoopin koodi</u> on kolmiosainen. Alun <b>ISO</b> kirjain kertoo biotoopin ja seuraava numero tai <b>ISO</b> kirjain tarkentaa sitä. Niiden perään merkitään metsäisillä biotoopeilla puuston keskikorkeus ja aukeilla biotoopeilla aukean kokoluokka. <a href=\"https://www.luomus.fi/sites/default/files/files/linjalomake-e.pdf\" target=\"_blank\" rel=\"noreferrer\">Tarkemmat ohjeet</a>",
      "@shortHandTextHelp": "<div> <strong>Kirjoita pikakirjoitukseen LAJI (a) (Lukumäärä) Koodi (A/P)</strong> <p> <table class=\"table table-condensed\"> <thead> <tr> <th>Koodi</th><th>Havainnon laatu</th><th>Ilmoitettava lukumäärä</th> </tr> </thead> <tbody> <tr> <td>x</td><td>Laulava</td><td>Yksilömäärä</td> </tr> <tr> <td>v</td><td>Muuten ääntelevä</td><td>Yksilömäärä</td> </tr> <tr> <td>o</td><td>Näköhavainto</td><td>Yksilömäärä</td> </tr> <tr> <td>k</td><td>Koiras</td><td>Yksilömäärä</td> </tr> <tr> <td>n</td><td>Naaras</td><td>Yksilömäärä</td> </tr> <tr> <td>y</td><td>Ylilentävä</td><td>Yksilömäärä</td> </tr> <tr> <td>a luku o</td><Td>Parvi</Td><td>Yksilömäärä</td> </tr> <tr> <td>a luku y</td><td>Lentoparvi</td><td>Yksilömäärä</td> </tr> <tr> <td>pari</td><td>Pari</td><td>Parimäärä</td> </tr> <tr> <td>poikue</td><td>Poikue</td><td>Parimäärä</td> </tr> <tr> <td>pesä</td><td>Pesä</td><td>Parimäärä</td> </tr> </tbody> </table> </p> <p> <table class=\"table table-condensed\"> <tbody> <tr> <th>LAJI</th><td>Lajin kaksi- tai kuusikirjaiminen koodi. Pakollinen.</td> </tr> <tr> <th>a</th><td>Jos kyseessä on parvihavainto, lukumäärän eteen kirjoitetaan a. Muuten a jätetään kirjoittamatta. </td></tr> <tr> <th>Lukumäärä</th><td>Yksilömäärä tai koodeille \"pari\", \"poikue\", \"pesä\" parimäärä. Jos jätetään kirjoittamatta, lukumääräksi tulee 1. </td></tr> <tr> <th>Koodi</th><td>Luettelo koodeista on yllä. Pakollinen. </td></tr> <tr> <th>A/P</th><td>A = Apusarka, P = Pääsarka. Jos jätetään kirjoittamatta, saraksi tulee A. </td></tr> </tbody> </table> </p> <p> Voit käyttää suuria tai pieniä kirjaimia. Voit käyttää välilyöntejä tai kirjoittaa kaiken yhteen. </p> <p>Koodit koiras, naaras, pari, poikue ja pesä: ei kirjata onko nähty tai kuultu</p> <p> Esimerkkejä: <i>TTX, RRvp, pt2xp, ec2y, CSa6y, CORNIX O P, cornixop, TM2pariP, PD3k</i> </p> <p>Vinkki: Jos havaintoa ei hyväksytä pikasyöttökentässä, kokeile sulkea pikasyöttö ja valita erillisistä kentistä.<p> <p><strong>HUOM!</strong> ilmoita parvet aina parvihavaintoina esim. a2o ja havaitut parit koodilla pari. Pikasyötössä 2o tarkoittaa kahta erillistä näköhavaintoa, jotka tulkitaan kahdeksi pariksi.</p> </div>",
      "@legPublicLabel": "Observernamn är offentliga",
      "@legPublicHelp": "Du kan gömma observatörsnamn om det behövs genom att välja \"Nej\". Observatörsnamnen är alltid synliga för auktoritativa medel.",
      "@legHelp": "Voit lisätä kaverisi käyttäjätunnuksen havainnoijaksi, jolloin havainto näkyy myös hänen omissa havainnoissaan. Automaattinen tekstin täydennys ehdottaa vahvistettujen kavereittesi nimiä. Voit myös lisätä muita havainnoijia kirjoittamalla heidän nimensä, vaikkeivat he olisi kavereitasi, tällöin näytetään punainen kolmio nimen kohdalla. Voit antaa kavereille oikeuden muokata lomaketta valitsemalla \"Kyllä\". Voit pyytää toista käyttäjää kaveriksesi profiilisivullasi. Profiilisi aukeaa klikkaamalla omaa käyttäjätunnustasi oikealla yläpalkissa. Etsi kaverisi nimellä hakemalla profiilisivulta ja valitse \"Lisää kaveriksi\". Sen jälkeen kun hän on vahvistanut pyyntösi omassa profiilissaan, olette kavereita ja voitte esim. Vihko-palvelussa tallentaa yhteisiä havaintoja.",
      "@shortHandTextLabel": "Pikasyöttö",
      "@timeStartLabel": "Kellonaika",
      "@dateBeginPresenceValidation": "Datumn krävs",
      "@documentNotesLabel": "",
      "@existingGatheringsInNpValidation": "Kyseiselle laskentajaksolle on jo tehty laskenta valitulta reitiltä.",
      "@dateNotInAnyRangeValidation": "Päivämäärä on laskentajaksojen ulkopuolella.",
      "@secureLevelLabel": "Observationerna geografisk information är offentliga i detalj",
      "@secureLevelHelp": "Genom att välja \"Nej\" kommer observationerna geografisk information att grovas till en 10 x 10 km² kvadrat i offentligt material. Den geografiska informationen kommer alltid att finnas tillgänglig för auktoritativa uppgifter i detalj. Bilder som är fästa vid grovade observationer är offentliga."
    },
    "fi": {
      "@success": "Linjalaskennan havaintosi on nyt tallennettu. Kiitos osallistumisestasi! Jos sinulla on kysyttävää, ole yhteydessä linnustonseuranta@luomus.fi",
      "@npDescription": "<p>Tämä on Luonnontieteellisen keskusmuseon Linnustonseurannan vakiolinjalaskentojen havaintojen ilmoitusjärjestelmä. Täällä voit tarkastella linjojen sijaintia ja tietoja, varata vakiolinjan, ilmoittaa laskennan havainnot ja tarkastella linjalaskentojen tuloksia. Lisätietoa laskennoista ja laskentaohjeita löydät Linnustonseurannan sivuilta: <a href=\"https://www.luomus.fi/fi/pesimalintujen-linja-pistelaskenta\" target=\"_blank\" rel=\"noopener noreferref\">https://www.luomus.fi/fi/pesimalintujen-linja-pistelaskenta</a></p><p>Valitsemalla alla luettelosta tai kartalta vakiolinjan, voit:</p><ol><li>Tarkastella yleisiä reittien tietoja ja varaustilannetta.</li><li>Tehdä varauksen tulevalle kaudelle ja vapauttaa tekemäsi varauksen.</li><li>Katsoa ja tulostaa vakiolinjan kartan ja maastolomakkeen. Valitse vakiolinja, minkä jälkeen valitse oikeasta reunasta ”Katso ja tulosta kartta ja maastolomake”. Lomakkeita ei kannata tulostaa ennen linnustonseurannan lupaa, koska reittiin on voinut tulla hyväksymättömiä reittimuutoksia.</li><li>Tarkastella tunnuksellasi valitulta vakiolinjalta ilmoitettuja tuloksia.</li><li>Siirtyä ilmoittamaan havaintoja vakiolinjalta, jonka olet varannut. Valitse vakiolinja, minkä jälkeen klikkaa ”ilmoita uusi laskenta tälle reitille”.</ol><p>Jos sinulla on kysyttävää, ota yhteyttä <a target=\"_blank\" href=\"mailto:linnustonseuranta@luomus.fi\">linnustonseuranta@luomus.fi</a></p>",
      "@npUseLabel": "Ilmoita uusi laskenta tälle reitille",
      "@editorsLabel": "Muokkausoikeus",
      "@legLabel": "Havainnoijat",
      "@acknowledgeNoUnitsInCensus": "Etko havainnut yhtään kiiltomatoa?",
      "@gatheringsLabel": "Piste",
      "@gatheringsImagesLabel": "Kuvat havaintopaikasta",
      "@unitsLabel": "Havainnot",
      "@editorsHelp": "Jos lisäät tälle lomakkeelle uuden havainnoijan, joka on profiilissasi luokiteltu kaveriksesi, voit antaa hänelle oikeuden muokata retkikertomusta. Muokkausoikeuden haltijoille kaikki lomakkeeseen tallennetut havainnot näkyvät myös heidän omina havaintoinaan.",
      "@gatheringsHelp": "Aloita havaintojen ilmoittaminen piirtämällä havaintoalue kartalle",
      "@gatheringsItemsTitle": "Havaintopaikan tiedot",
      "@time": "Aika",
      "@addGathering": "Lisää paikka",
      "@addUnit": "Lisää havainto",
      "@copyUnit": "Kopioi havainto",
      "@youMustBeEditor": "Sinulla täytyy olla muokkausoikeus.",
      "@legPresenceValidation": "Vähintään yksi havainnoija täytyy ilmoittaa.",
      "@gatheringsPresenceValidation": "Vähintään yksi paikka täytyy ilmoittaa.",
      "@unitsPresenceValidation": "Vähintään yksi havainto täytyy ilmoittaa.",
      "@dateValidation": "Pitää olla ennen %{date}",
      "@taxonValidation": "Nimi on pakollinen",
      "@geometryValidation": "Paikalla täytyy olla vähintään yksi kuvio.",
      "@title": "Maalintujen linjalaskennat",
      "@description": "Tämä on Luonnontieteellisen keskusmuseon Linnustonseurannan vakiolinjalaskentojen havaintojen ilmoitusjärjestelmä. Muiden linjojen kuin vakiolinjojen tulokset ilmoitetaan toistaiseksi tuttuun tapaan Excel-lomakkeella. Lisätietoa laskennoista ja laskentaohjeita löydät Linnustonseurannan sivuilta: <a target=\"_blank\" rel=\"noopener noreferrer\" href=\"https://www.luomus.fi/fi/pesimalintujen-linja-pistelaskenta\">https://www.luomus.fi/fi/pesimalintujen-linja-pistelaskenta</a><ol><li>Ilmoita lomakkeella laskennan ja reitin perustiedot sekä havaitut linnut biotoopeittain. Saat lisäohjeita ?-kuvakkeista kenttien vieressä.</li><li>Lomakkeella voit siirtyä kentästä toiseen joko hiiren avulla tai pikanäppäimillä (tab = seuraavaan kenttään, Alt + nuoli ylös = edelliselle havaintoriville, Alt + nuoli alas = seuraavalle havaintoriville).</li><li>Kirjaa havaitut linnut biotoopeittain. Voit valita biotooppipätkät joko kartalta klikkaamalla tai liikkua biotooppipätkästä toiseen nuolinäppäimillä havaintojensyötön yläpuolella. Kirjaa muuttuneet biotoopit ”pääsaran biotooppi” -kenttään.</li><li>Tee mahdolliset muutokset biotooppipätkien pituuteen tai reitin kulkuun kartan työkaluja käyttäen. Voit muokata linjan pistettä ensin tuplaklikkaamalla ja sitten raahaamalla. Pisteen voi poistaa klikkaamalla sitä hiiren oikealla näppäimellä. Jos teit virheen kartan muokkauksessa, käytä ”Kumoa”-työkalua kartan oikeasta reunasta. Seuraa kartalla kursorin viereen tulevia ohjetekstejä ja katso perusteellisempaa ohjetta Linjalaskentojen etusivun käyttöohjeesta.</li><li>Havaintoja voit syöttää joko ns. pikasyöttötilassa tai erillisten kenttien avulla. Pikasyöttötilaan ja siitä pois siirrytään havaintojensyötön oikean reunan nuolikuvakkeesta. Käytössä ovat 3+3 lyhenteet, tieteelliset ja suomenkieliset nimet sekä pikasyöttötilassa lisäksi yleisimpien lajien 2-kirjaimiset lyhenteet (linkki 2-kirjaimisiin lyhenteisiin: <a target=\"_blank\" rel=\"noreferrer noopener\" href=\"https://www.luomus.fi/fi/linjalaskennassa-sallitut-kaksikirjaimiset-lajilyhenteet\">https://www.luomus.fi/fi/linjalaskennassa-sallitut-kaksikirjaimiset-lajilyhenteet</a>). Voit käyttää pieniä tai isoja kirjaimia ja käyttää välilyöntejä tai kirjoittaa kaiken yhteen. Katso ohjetta ”Havainnot”-kentän alla.</li><li>Kun olet syöttänyt havainnot, ja haluat tallentaa ja lähettää tiedot eteenpäin Linnustonseurannalle, paina: ”Tallenna julkisena”.</li><li>Tallennuksen jälkeen tulee näkyviin lista mahdollisista virheistä ja varoituksista. Korjaa virheet ja tallenna uudelleen.</li><li>Tallennuksen jälkeen näet koosteen tallentamastasi havaintoerästä, esimerkiksi havaituista lajeista ja parimääristä, pääsarkaprosentista, kokonaislajimäärästä, etenemisnopeudesta jne.</li><li>Pääset tarvittaessa muokkaamaan tallennettua havaintoerää ”Omat havaintoeräni” –kohdasta. Kunkin havaintoerän vasemmassa laidassa on valittavana ”Näytä havaintoerä” ja ”Siirry muokkaussivulle” -kuvakkeet.</li></ol>",
      "@provinceLabel": "Eliömaakunta",
      "@municipalityLabel": "Kunta",
      "@biotooppiLabel": "Pääsaran biotooppi",
      "@havaintopaivienmaaraLabel": "Havaintopäivien määrä",
      "@pyrgusmalvaeLabel": "Pyrgus malvae - mansikkakirjosiipi",
      "@pyrgusalveusLabel": "Pyrgus alveus - tummakirjosiipi",
      "@AhvenanmaaLabel": "Ahvenanmaa (A)",
      "@UusimaaLabel": "Uusimaa (U)",
      "@EtelaKarjalaLabel": "Etelä-Karjala (EK)",
      "@VarsinaisSuomiLabel": "Varsinais-Suomi (V)",
      "@SatakuntaLabel": "Satakunta (St)",
      "@EtelaHameLabel": "Etelä-Häme (EH)",
      "@EtelaSavoLabel": "Etelä-Savo (ES)",
      "@LaatokanKarjalaLabel": "Laatokan Karjala (LK)",
      "@EtelaPohjanmaaLabel": "Etelä-Pohjanmaa (EP)",
      "@PohjoisHameLabel": "Pohjois-Häme (PH)",
      "@PohjoisSavoLabel": "Pohjois-Savo (PS)",
      "@PohjoinKarjalaLabel": "Pohjois-Karjala (PK)",
      "@KeskiPohjanmaaLabel": "Keski-Pohjanmaa (KP)",
      "@KainuuLabel": "Kainuu (Kn)",
      "@OulunPohjanmaaLabel": "Eteläinen PP (Oulun Pohjanmaa, PPe)",
      "@PeraPohjanmaaLabel": "Pohjoinen PP (Perä-Pohjanmaa, PPp)",
      "@KoillismaaLabel": "Koillismaa (Kuusamo, Ks)",
      "@KittilanLappiLabel": "Kittilän Lappi (Läntinen KemL, KiL)",
      "@SompionLappiLabel": "Sompion Lappi (Itäinen KemL, SoL)",
      "@EnontekionLappiLabel": "Enontekiön Lappi (EnL)",
      "@InarinLappiLabel": "Inarin Lappi (InL)",
      "@addPhotoGlyphLabel": "Lisää valokuva",
      "@setLocationGlyphLabel": "Valitse sijainti",
      "documentNotesLabel": "Lisätiedot laskennasta (esimerkiksi muutokset reittiin, huomiot säätilasta jne.)",
      "@taxonLabel": "Laji",
      "@unitShortcutInsertHelp": "havainto",
      "@gatheringShortcutNavigateHelp": "väliin",
      "@unitShortcutNavigateHelp": "havaintoon",
      "@notStringValidation": "%{key} ei ole tyypiltään tekstiä",
      "@invalidBiotopValidation": "Biotoopin täytyy olla joko K,M,S,L,J,P,H,R,N,V,A,T tai X, mutta se oli '%{value}'",
      "@invalidFocusValidation": "Toisen kirjaimen täytyy olla yksi arvojoukosta %{key}, mutta se oli %{value}",
      "@invalidSizeValidation": "Väärä kokoluokka annettiin. Kokoluokan pitäisi olla %{key}, mutta se oli %{value}",
      "@invalidKValidation": "K pitäisi olla välillä 1-7. Nyt se oli '%{value}'.",
      "@invalidPKValidation": "Kun on kyse puista, niin K pitäisi olla välillä 2-35. Nyt se oli '%{value}'.",
      "@invalidAValidation": "A pitäisi olla välillä 1-6. Nyt se oli '%{value}'.",
      "@invalidXValidation": "Väärä MUU. Pitäisi olla vain tarkentava kirjain tai X, eikä mitään muuta.",
      "@invalidTaxon": "Ei tunnettu",
      "@invalidCountedMin": "Ei löytynyt yhtään ilmoitettua havaintoa.",
      "@invalidCountedMax": "Havaintoja ilmoitettu, vaikka biotooppia ei ole laskettu.",
      "@tooLongValidation": "Biotoopin koodi sisältää ylimääräisiä arvoja. Käytä lisätiedot kenttää mieluummin.",
      "@tooShortValidation": "Biotoopin koodi on liian lyhyt!",
      "@individualCountValidation": "Yksilömäärän tulee olla suurempi kuin 1 kun parvi on nähty.",
      "@timeEndValidation": "Loppuajan tulee olla alkuaikaa myöhemmin",
      "@pairCountValidation": "Parimäärä ei saa olla suurempi kuin yksilömäärä.",
      "@startPointDeviationHelp": "Mikäli laskenta aloitettiin muusta kuin aiemmasta aloituspisteestä, merkitse tähän poikkeama metreinä reitin kiertosuuntaan.",
      "@habitatClassificationHelp": "<u>Biotoopin koodi</u> on kolmiosainen. Alun <b>ISO</b> kirjain kertoo biotoopin ja seuraava numero tai <b>ISO</b> kirjain tarkentaa sitä. Niiden perään merkitään metsäisillä biotoopeilla puuston keskikorkeus ja aukeilla biotoopeilla aukean kokoluokka. <a href=\"https://www.luomus.fi/sites/default/files/files/linjalomake-e.pdf\" target=\"_blank\" rel=\"noreferrer\">Tarkemmat ohjeet</a>",
      "@shortHandTextHelp": "<div> <strong>Kirjoita pikakirjoitukseen LAJI (a) (Lukumäärä) Koodi (A/P)</strong> <p> <table class=\"table table-condensed\"> <thead> <tr> <th>Koodi</th><th>Havainnon laatu</th><th>Ilmoitettava lukumäärä</th> </tr> </thead> <tbody> <tr> <td>x</td><td>Laulava</td><td>Yksilömäärä</td> </tr> <tr> <td>v</td><td>Muuten ääntelevä</td><td>Yksilömäärä</td> </tr> <tr> <td>o</td><td>Näköhavainto</td><td>Yksilömäärä</td> </tr> <tr> <td>k</td><td>Koiras</td><td>Yksilömäärä</td> </tr> <tr> <td>n</td><td>Naaras</td><td>Yksilömäärä</td> </tr> <tr> <td>y</td><td>Ylilentävä</td><td>Yksilömäärä</td> </tr> <tr> <td>a luku o</td><Td>Parvi</Td><td>Yksilömäärä</td> </tr> <tr> <td>a luku y</td><td>Lentoparvi</td><td>Yksilömäärä</td> </tr> <tr> <td>pari</td><td>Pari</td><td>Parimäärä</td> </tr> <tr> <td>poikue</td><td>Poikue</td><td>Parimäärä</td> </tr> <tr> <td>pesä</td><td>Pesä</td><td>Parimäärä</td> </tr> </tbody> </table> </p> <p> <table class=\"table table-condensed\"> <tbody> <tr> <th>LAJI</th><td>Lajin kaksi- tai kuusikirjaiminen koodi. Pakollinen.</td> </tr> <tr> <th>a</th><td>Jos kyseessä on parvihavainto, lukumäärän eteen kirjoitetaan a. Muuten a jätetään kirjoittamatta. </td></tr> <tr> <th>Lukumäärä</th><td>Yksilömäärä tai koodeille \"pari\", \"poikue\", \"pesä\" parimäärä. Jos jätetään kirjoittamatta, lukumääräksi tulee 1. </td></tr> <tr> <th>Koodi</th><td>Luettelo koodeista on yllä. Pakollinen. </td></tr> <tr> <th>A/P</th><td>A = Apusarka, P = Pääsarka. Jos jätetään kirjoittamatta, saraksi tulee A. </td></tr> </tbody> </table> </p> <p> Voit käyttää suuria tai pieniä kirjaimia. Voit käyttää välilyöntejä tai kirjoittaa kaiken yhteen. </p> <p>Koodit koiras, naaras, pari, poikue ja pesä: ei kirjata onko nähty tai kuultu</p> <p> Esimerkkejä: <i>TTX, RRvp, pt2xp, ec2y, CSa6y, CORNIX O P, cornixop, TM2pariP, PD3k</i> </p> <p>Vinkki: Jos havaintoa ei hyväksytä pikasyöttökentässä, kokeile sulkea pikasyöttö ja valita erillisistä kentistä.<p> <p><strong>HUOM!</strong> ilmoita parvet aina parvihavaintoina esim. a2o ja havaitut parit koodilla pari. Pikasyötössä 2o tarkoittaa kahta erillistä näköhavaintoa, jotka tulkitaan kahdeksi pariksi.</p> </div>",
      "@legPublicLabel": "Havainnoijien nimet ovat julkisia",
      "@legPublicHelp": "Tarvittaessa voit piilottaa havainnoijien nimet avoimesta aineistosta valitsemalla \"Ei\"-vaihtoehdon. Havainnoijien nimet ovat aina viranomaisten käytettävissä.",
      "@shortHandTextLabel": "Pikasyöttö",
      "@timeStartLabel": "Kellonaika",
      "@dateBeginPresenceValidation": "Päivämäärä on pakollinen",
      "@documentNotesLabel": "Huomautukset",
      "@existingGatheringsInNpValidation": "Kyseiselle laskentajaksolle on jo tehty laskenta valitulta reitiltä.",
      "@dateNotInAnyRangeValidation": "Päivämäärä on laskentajaksojen ulkopuolella.",
      "@secureLevelLabel": "Havainnon tarkat paikkatiedot ovat julkisia",
      "@secureLevelHelp": "Valitsemalla \"Ei\"-vaihtoehdon havainnon paikkatiedot karkeistetaan 10 x 10 km² karttaruutuun avoimessa aineistossa. Havainnon tarkat paikkatiedot ovat aina viranomaisten käytettävissä. Karkeistettuihin havaintoihin liitetyt valokuvat ovat julkisia."
    }
  },
  "@type": "MHL.form",
  "@context": "http://schema.laji.fi/context/form.jsonld",
  "options": {
    "hasAdmins": true,
    "about": {
      "fi": "5019",
      "en": "5019",
      "sv": "5019"
    }
  }
}