{
  "id": "MHL.32",
  "@context": "http://schema.laji.fi/context/form.jsonld",
  "@type": "MHL.form",
  "fields": [
    {
      "formID": "MHL.36"
    },
    {
      "label": "@locality",
      "name": "locality",
      "type": "text"
    },
    {
      "label": "@imagesLabel",
      "name": "images",
      "options": {
        "excludeFromCopy": true,
        "target_element": {
          "type": "text"
        }
      },
      "type": "collection"
    },
    {
      "label": "@targetTaxon",
      "name": "taxonIDs",
      "options": {
        "target_element": {
          "type": "text"
        }
      },
      "type": "collection",
      "validators": {
        "presence": {
          "allowEmpty": false,
          "message": "@taxonPresenceValidation"
        }
      }
    }
  ],
  "patch": [
    {
      "op": "add",
      "path": "/fields/2/validators",
      "value": {
        "length": {
          "minimum": 1,
          "tooShort": "@tooShortMunicipality"
        }
      }
    },
    {
      "op": "add",
      "path": "/uiSchema/images",
      "value": {
        "ui:field": "ImageArrayField"
      }
    },
    {
      "op": "add",
      "path": "/uiSchema/taxonIDs",
      "value": {
        "items": {
          "ui:options": {
            "allowNonsuggestedValue": false,
            "autosuggestField": "taxon",
            "query": {
              "onlyInvasive": true
            },
            "suggestionReceive": "key"
          },
          "ui:widget": "AutosuggestWidget"
        },
        "ui:field": "SingleItemArrayField",
        "ui:functions": {
          "ui:field": "ConditionalUiSchemaField",
          "ui:options": {
            "cases": {
              "operations": {
                "type": "merge",
                "uiSchema": {
                  "ui:disabled": true
                }
              },
              "rules": [
                "isEdit"
              ]
            }
          }
        },
        "ui:help": "@taxonHelp",
        "ui:options": {
          "renderTitleAsLabel": true
        }
      }
    }
  ],
  "language": "fi",
  "name": "Vieraslajien torjunnan nimetty paikka",
  "translations": {
    "en": {
      "@imagesLabel": "Images of the place",
      "@locality": "Place description",
      "@nameLabel": "Place name",
      "@targetTaxon": "Target taxon",
      "@taxonHelp": "Enter the name of the taxon to be eradicated in the textfield. Taxon must be chosen from the dropdown that opens below the textfield.",
      "@taxonPresenceValidation": "Target taxon must be reported.",
      "@tooShortMunicipality": "Municipality is required"
    },
    "fi": {
      "@imagesLabel": "Kuvat paikasta",
      "@locality": "Paikan tarkempi kuvaus",
      "@nameLabel": "Paikan nimi",
      "@targetTaxon": "Kohdetaksoni",
      "@taxonHelp": "Kirjoita torjuttavan taksonin nimi tekstikenttään. Taksoni on valittava tekstikentän alapuolelle aukeavasta luettelosta.",
      "@taxonPresenceValidation": "Kohdetaksoni on ilmoitettava.",
      "@tooShortMunicipality": "Kunta täytyy ilmoittaa"
    },
    "sv": {
      "@imagesLabel": "",
      "@locality": "",
      "@nameLabel": "",
      "@targetTaxon": "",
      "@taxonHelp": "",
      "@taxonPresenceValidation": "",
      "@tooShortMunicipality": ""
    }
  },
  "options": {
    "saveLabel": "@footerSaveButtonLabel",
    "editLabel": "@footerEditButtonLabel",
    "hideDraftButton": true,
    "namedPlaceOptions": {
      "allowAddingPublic": true
    }
  }
}